# This file uses centimeters as units for non-parametric coordinates.

mtllib TENTACULE_PART_03.mtl
g default
v 1.626293 2.682627 -30.000000
v 0.694932 3.720870 -30.361591
v 1.103035 3.160275 -30.000000
v 0.518537 3.691004 -30.000000
v 0.605443 3.707382 -30.179979
v 0.786188 3.731401 -30.543150
v 1.713786 2.602434 -30.000002
v 1.775119 2.614146 -30.133064
v 1.852095 2.625884 -30.296968
v 1.930639 2.634795 -30.461887
v 0.879447 3.738945 -30.725737
v 0.729000 2.643497 -30.000000
v 2.009693 2.640620 -30.625755
v 0.974301 3.743263 -30.909130
v 1.672273 2.470456 -30.000000
v 0.512346 3.689417 -30.000002
v 2.089988 2.643516 -30.789436
v 1.070044 3.744135 -31.091888
v 2.172348 2.643479 -30.954983
v 1.166903 3.741664 -31.273935
v 0.080280 3.575100 -30.000000
v 2.256396 2.640335 -31.122248
v 1.265216 3.735838 -31.456528
v 2.340665 2.633916 -31.288967
v 1.364828 3.726517 -31.639999
v 1.444054 1.135098 -30.444870
v 2.425321 2.624255 -31.454710
v 1.464993 3.713532 -31.823370
v 1.513175 1.153213 -30.588799
v 2.511452 2.611281 -31.621735
v 1.565683 3.696913 -32.005825
v 1.583284 1.168774 -30.732874
v 0.814353 1.957261 -30.000000
v 1.455511 1.772439 -30.000000
v -0.734119 3.340425 -30.898996
v 1.654033 1.181634 -30.876408
v 2.599075 2.594858 -31.790640
v 1.667143 3.676664 -32.188202
v 1.726113 1.191927 -31.020178
v 2.687047 2.574963 -31.960020
v 1.769357 3.652695 -32.371117
v -0.634593 3.356604 -31.082594
v 1.799753 1.199624 -31.165081
v -0.831830 3.321150 -30.715302
v 1.376554 1.114660 -30.301786
v 2.774634 2.551651 -32.128250
v 1.871879 3.624900 -32.554405
v -0.533809 3.369606 -31.265039
v 1.874469 1.204592 -31.310732
v -0.432122 3.379335 -31.446333
v 1.949341 1.206694 -31.455885
v 2.862714 2.524804 -32.296616
v 1.974366 3.593255 -32.737091
v -0.329390 3.385710 -31.627357
v 2.024855 1.205941 -31.600700
v -0.625392 2.393189 -30.000000
v 2.951813 2.494212 -32.466599
v 2.076906 3.557814 -32.919098
v -0.225264 3.388664 -31.808672
v 2.101687 1.202284 -31.746653
v -0.927881 3.298789 -30.531801
v -0.355299 3.456431 -30.000000
v -0.120057 3.388224 -31.989176
v 3.041478 2.459824 -32.638042
v 2.179532 3.518526 -33.101124
v 1.260252 1.134176 -29.999998
v 2.179601 1.195645 -31.893816
v -0.014511 3.384343 -32.168171
v 2.257603 1.186016 -32.041042
v 3.130304 2.421917 -32.808891
v 2.282075 3.475304 -33.283546
v 0.091332 3.376957 -32.346233
v 1.310817 1.091999 -30.159338
v 2.335419 1.173380 -32.187538
v 3.218508 2.380465 -32.978764
v 2.384073 3.428125 -33.465927
v 0.197997 3.365927 -32.524689
v -1.022468 3.273417 -30.347567
v -0.799202 3.332022 -30.000000
v 2.413929 1.157603 -32.334572
v 1.238983 1.063769 -29.999998
v 0.305579 3.351257 -32.702934
v 3.307014 2.335093 -33.149658
v 2.485525 3.377024 -33.647495
v 2.493354 1.138556 -32.483036
v 0.413070 3.333050 -32.879589
v 1.246327 1.066949 -30.016554
v 0.943039 0.973744 -30.000000
v 3.395767 2.285681 -33.322105
v 2.586356 3.322055 -33.828537
v 2.573119 1.116256 -32.632484
v 0.520164 3.311318 -33.054768
v 2.652076 1.090921 -32.781315
v 0.082891 2.722638 -31.736839
v 1.407180 2.201588 -31.178881
v 1.283291 2.871942 -31.102249
v -1.194800 3.218061 -30.000000
v -1.115446 3.245143 -30.162231
v 3.483823 2.232478 -33.495113
v 2.686462 3.263179 -34.009537
v -1.221734 3.132610 -30.000000
v 0.627266 3.285890 -33.229809
v 2.730736 1.062411 -32.929707
v 0.604501 0.868211 -30.000000
v 0.734885 3.256588 -33.405220
v 3.570391 2.175795 -33.667065
v 2.785613 3.200332 -34.190769
v 2.809923 1.030377 -33.079418
v 0.842313 3.223622 -33.579540
v 3.656132 2.115341 -33.838764
v 2.883621 3.133497 -34.371666
v 2.889409 0.994787 -33.230598
v 0.948792 3.187184 -33.752083
v 0.259902 0.758311 -30.000000
v 3.741502 2.050757 -34.011627
v 2.980399 3.062806 -34.551701
v 2.968168 0.955960 -33.382069
v 1.054313 3.147217 -33.923485
v -0.647097 1.687167 -30.000000
v -1.424071 2.482866 -30.000000
v 3.826204 1.982044 -34.185802
v 3.075776 2.988342 -34.731167
v 1.159614 3.103337 -34.095390
v 3.045643 0.914097 -33.532654
v -0.102774 0.697333 -30.734476
v -0.790518 2.362672 -30.000000
v -0.028746 0.725042 -30.878353
v 1.264771 3.055529 -34.267170
v 3.122719 0.868758 -33.683571
v 3.909080 1.909804 -34.359753
v 3.169616 2.910069 -34.910515
v 0.047029 0.750394 -31.022787
v 0.124057 0.773303 -31.166761
v 1.368607 3.004301 -34.437176
v 0.206781 2.052284 -31.813473
v 0.201606 0.793603 -31.309395
v 3.199773 0.819623 -33.836033
v 3.990045 1.834114 -34.532612
v 3.261743 2.827903 -35.090015
v 0.279593 0.811220 -31.451101
v -1.407626 1.732541 -30.583776
v 0.358725 0.826162 -31.593193
v 1.470798 2.949784 -34.605457
v 3.276361 0.766802 -33.989841
v -1.319925 1.766067 -30.752537
v 0.439152 0.838488 -31.735418
v -0.175804 0.667098 -30.590183
v -1.231174 1.796755 -30.919336
v 4.069755 1.754466 -34.705799
v 3.352159 2.741826 -35.268963
v 0.520026 0.848129 -31.876724
v 1.571749 2.891669 -34.773380
v -1.141852 1.824434 -31.083851
v 0.600972 0.855031 -32.016964
v 3.351221 0.710995 -34.143238
v -1.051214 1.849255 -31.248182
v -1.613596 1.866680 -30.000000
v 0.682345 0.859088 -32.157204
v -0.705164 1.676435 -30.000000
v -1.493050 1.696636 -30.415329
v -0.958545 1.871366 -31.413193
v 4.148238 1.670702 -34.880020
v 3.440564 2.652149 -35.446945
v 1.672103 2.829499 -34.941860
v 0.764750 0.860284 -32.297810
v -0.090587 0.644007 -30.000000
v 3.424500 0.652104 -34.295830
v -0.864874 1.890558 -31.576845
v 0.847614 0.858670 -32.438038
v -0.248177 0.634309 -30.444208
v -0.771042 1.906664 -31.738163
v 1.771252 2.763688 -35.109440
v 0.930408 0.854268 -32.577469
v 4.225038 1.583007 -35.055126
v 3.526799 2.558954 -35.624290
v -0.676745 1.919688 -31.898344
v -0.447616 0.524957 -30.000000
v 3.497083 0.589408 -34.449474
v 1.012990 0.847006 -32.716446
v -0.580923 1.929677 -32.059322
v 1.095938 0.836713 -32.855667
v 1.868321 2.694793 -35.275112
v -0.483933 1.936636 -32.219917
v 4.299235 1.492083 -35.229599
v 3.610753 2.462173 -35.801498
v 1.179336 0.823412 -32.995014
v -0.319336 0.599183 -30.297146
v 3.568909 0.522808 -34.604641
v -0.387106 1.940488 -32.378269
v 1.262614 0.807214 -33.133995
v 1.963185 2.622852 -35.439259
v -0.290596 1.941214 -32.534718
v -1.576513 1.658216 -30.247259
v -1.695229 1.597282 -30.000000
v -0.457756 0.521507 -30.000002
v 1.345357 0.788168 -33.272423
v -0.193327 1.938705 -32.691608
v 3.639347 0.452664 -34.760773
v 4.371073 1.397767 -35.403183
v 3.692359 2.361646 -35.978790
v -1.262507 1.220688 -30.000002
v 2.056546 2.547192 -35.603756
v -0.094888 1.932942 -32.848927
v 1.427618 0.766133 -33.410782
v -0.388398 0.562050 -30.150606
v 0.003306 1.924054 -33.004505
v 1.509981 0.740915 -33.549377
v 3.707370 0.379812 -34.916111
v 4.440973 1.299546 -35.577240
v 3.771593 2.257472 -36.155361
v 2.148729 2.467529 -35.768532
v 0.100689 1.912105 -33.157944
v 1.592174 0.712622 -33.688053
v -0.455900 0.522673 -30.004133
v 0.197822 1.896943 -33.310829
v -1.658883 1.616976 -30.077213
v 1.673746 0.681392 -33.826519
v 3.773483 0.303796 -35.070984
v 2.238701 2.384774 -35.931767
v 4.508794 1.197394 -35.752182
v 3.848087 2.150109 -36.330845
v 0.295670 1.878317 -33.464508
v 1.754305 0.647297 -33.964680
v 0.393528 1.856421 -33.617496
v 3.838314 0.223826 -35.227203
v 1.834125 0.610099 -34.102844
v 2.326032 2.299312 -36.093182
v 0.490333 1.831528 -33.768520
v 4.573972 1.091751 -35.927570
v 3.921704 2.039632 -36.505600
v 1.913573 0.569641 -34.241310
v 0.585954 1.803649 -33.917927
v 3.901623 0.139972 -35.384918
v 2.410777 2.210997 -36.253517
v 1.992319 0.526074 -34.379978
v 0.681386 1.772341 -34.067818
v 4.635974 0.983177 -36.102142
v 3.992387 1.925873 -36.680302
v 0.776999 1.737474 -34.218109
v 2.069930 0.479585 -34.518585
v 3.962614 0.052986 -35.543098
v 2.493617 2.118937 -36.414494
v 0.871517 1.699584 -34.366932
v 2.146024 0.430285 -34.656982
v 4.695097 0.871363 -36.276066
v 4.060158 1.808586 -36.855007
v 0.964441 1.658891 -34.513950
v 2.574523 2.023206 -36.575344
v 4.020689 -0.036447 -35.700314
v 2.221070 0.377806 -34.795399
v 1.056095 1.615151 -34.660336
v 4.751513 0.755942 -36.450375
v 4.124869 1.688127 -37.028805
v 2.295220 0.322034 -34.934292
v 2.652542 1.924952 -36.734417
v 4.076436 -0.129107 -35.857502
v 1.147354 1.567801 -34.807449
v 2.368142 0.263166 -35.073532
v 1.237839 1.517106 -34.954247
v 4.805039 0.636961 -36.625393
v 4.186219 1.564999 -37.201431
v 2.727442 1.824448 -36.891758
v 2.439371 0.201487 -35.212791
v 4.130161 -0.225638 -36.016052
v 1.326593 1.463659 -35.099518
v 2.508627 0.137103 -35.351814
v 1.413342 1.407610 -35.243298
v 2.799444 1.721231 -37.048565
v 4.855123 0.515055 -36.800537
v 4.244081 1.439285 -37.373253
v 4.181581 -0.325875 -36.176014
v 2.576413 0.069529 -35.490967
v 1.498687 1.348383 -35.387241
v 2.869056 1.614371 -37.206051
v 4.901540 0.390552 -36.974808
v 4.298442 1.310657 -37.545143
v 1.583184 1.285519 -35.531750
v 2.642769 -0.001330 -35.630775
v 4.229889 -0.428669 -36.336021
v 1.666028 1.219717 -35.675442
v 2.935980 1.504421 -37.362976
v 2.707361 -0.075213 -35.771072
v 4.349353 1.178816 -37.716961
v 4.944505 0.263127 -37.148575
v 4.274848 -0.533633 -36.495014
v 1.746703 1.151419 -35.817802
v 2.769671 -0.151657 -35.911362
v 2.999571 1.392475 -37.518162
v 1.825086 1.080654 -35.959164
v 4.396595 1.044438 -37.887699
v 4.984032 0.132599 -37.322544
v 4.316948 -0.641768 -36.654316
v 2.829586 -0.230662 -36.051357
v 3.059666 1.278773 -37.671738
v 1.901751 1.006666 -36.101006
v 2.887547 -0.312812 -36.191677
v 4.356251 -0.753478 -36.814857
v 4.439973 0.907993 -38.057220
v 5.019937 -0.000948 -37.497021
v 1.976933 0.929234 -36.243149
v 3.116527 1.162534 -37.825226
v 2.943513 -0.398161 -36.332783
v 2.049883 0.849233 -36.384384
v 4.392488 -0.868532 -36.976677
v 4.479375 0.769569 -38.225891
v 5.051787 -0.136829 -37.671474
v 2.997166 -0.486387 -36.474495
v 3.170474 1.042895 -37.979324
v 2.120271 0.767025 -36.524494
v 4.425009 -0.985558 -37.138309
v 4.514776 0.628686 -38.394707
v 3.047975 -0.576792 -36.616104
v 2.188087 0.682466 -36.664097
v 5.079504 -0.274871 -37.845062
v 3.221127 0.920854 -38.132565
v 2.253770 0.594747 -36.804222
v 3.095968 -0.669554 -36.757374
v 4.453751 -1.104382 -37.298943
v 4.546209 0.485038 -38.563416
v 5.103205 -0.415316 -38.018135
v 3.268133 0.797310 -38.284210
v 2.317319 0.503952 -36.944412
v 3.141480 -0.765353 -36.899181
v 4.479027 -1.226090 -37.459988
v 3.311365 0.672502 -38.434414
v 4.573506 0.339539 -38.730938
v 2.378218 0.410895 -37.083839
v 5.122847 -0.558226 -38.191223
v 3.184411 -0.864160 -37.041851
v 2.436208 0.315938 -37.222355
v 4.500784 -1.350924 -37.622131
v 3.350985 0.545472 -38.584770
v 4.596560 0.192639 -38.897213
v 3.224478 -0.965599 -37.185204
v 5.138258 -0.703481 -38.364632
v 2.491293 0.218810 -37.360710
v 3.387162 0.415437 -38.735653
v 3.261219 -1.068772 -37.328377
v 4.518786 -1.478599 -37.785408
v 4.615270 0.044435 -39.062603
v 5.149139 -0.850449 -38.537968
v 2.543782 0.118710 -37.499531
v 3.294704 -1.173983 -37.471180
v 3.419628 0.283621 -38.885597
v 4.532609 -1.607654 -37.948410
v 2.593570 0.015958 -37.638306
v 4.629550 -0.105672 -39.228172
v 5.155463 -0.999036 -38.710476
v 3.325149 -1.282008 -37.614647
v 2.640352 -0.088766 -37.776527
v 3.448210 0.150805 -39.034115
v 4.542246 -1.738011 -38.110424
v 4.639402 -0.257999 -39.393650
v 5.157294 -1.149355 -38.882385
v 3.352435 -1.392758 -37.759029
v 2.683917 -0.195082 -37.914070
v 3.472810 0.017232 -39.181347
v 4.547825 -1.870750 -38.272804
v 4.644787 -0.411485 -39.557911
v 3.376327 -1.505802 -37.904152
v 2.724207 -0.303257 -38.051605
v 5.154576 -1.301390 -39.054127
v 3.493432 -0.118099 -39.328819
v 2.761410 -0.414074 -38.189533
v 4.549250 -2.006022 -38.436123
v 3.396491 -1.620081 -38.049053
v 4.645670 -0.565670 -39.720905
v 5.147164 -1.455002 -39.226013
v 3.510125 -0.255939 -39.476776
v 2.795450 -0.527152 -38.327450
v 3.412969 -1.735950 -38.193550
v 4.546331 -2.143527 -38.600445
v 4.641969 -0.720429 -39.882961
v 5.134859 -1.609664 -39.397835
v 2.826147 -0.641893 -38.465019
v 3.522811 -0.395008 -39.623856
v 3.425849 -1.854273 -38.338749
v 4.538875 -2.281811 -38.764507
v 4.633503 -0.876424 -40.045204
v 2.853339 -0.757887 -38.602123
v 3.531438 -0.534584 -39.769672
v 5.117646 -1.765312 -39.568901
v 3.435018 -1.974935 -38.484894
v 4.526886 -2.420776 -38.927593
v 2.876902 -0.875304 -38.739262
v 4.620218 -1.034031 -40.207417
v 3.535941 -0.674382 -39.914345
v 3.440303 -2.097480 -38.631824
v 5.095582 -1.921921 -39.739254
v 2.896909 -0.994914 -38.876724
v 4.510334 -2.561427 -39.090885
v 4.602245 -1.192129 -40.368450
v 3.536162 -0.815331 -40.059246
v 3.441534 -2.220718 -38.778545
v 5.068630 -2.079419 -39.909264
v 2.913342 -1.116403 -39.014275
v 4.489107 -2.703893 -39.254936
v 3.438699 -2.344960 -38.924797
v 4.579628 -1.350218 -40.528221
v 3.532031 -0.958215 -40.204620
v 2.926112 -1.239216 -39.151669
v 5.036675 -2.237658 -40.079243
v 4.463063 -2.847897 -39.419872
v 2.935108 -1.362907 -39.288776
v 3.431748 -2.471141 -39.071712
v 3.523659 -1.101843 -40.349277
v 4.552318 -1.508120 -40.687000
v 4.999580 -2.396235 -40.249199
v 2.940177 -1.487478 -39.425915
v 3.420583 -2.599167 -39.219563
v 4.432210 -2.992083 -39.584648
v 3.511105 -1.245493 -40.492847
v 4.520033 -1.666477 -40.845905
v 2.941271 -1.613679 -39.563313
v 4.957311 -2.555096 -40.418503
v 3.405093 -2.728598 -39.368252
v 4.396574 -3.136220 -39.748466
v 3.494348 -1.388821 -40.635384
v 4.486570 -1.831853 -41.000000
v 2.938411 -1.741349 -39.700909
v 4.483766 -1.820887 -41.000000
v 3.385293 -2.858172 -39.516804
v 4.573146 -2.191129 -41.000000
v 4.909969 -2.714102 -40.586994
v 4.422179 -1.817130 -41.000000
v 3.473116 -1.532567 -40.778061
v 4.356008 -3.281189 -39.912262
v 2.931582 -1.869967 -39.838520
v 4.656107 -2.556418 -41.000000
v 3.361141 -2.988027 -39.664814
v 4.857553 -2.873127 -40.754978
v 2.920736 -1.999060 -39.976009
v 4.310385 -3.427156 -40.076618
v 3.447185 -1.677587 -40.921230
v 3.364347 -1.876619 -40.999996
v 4.735922 -2.929796 -40.999996
v 3.430410 -1.757832 -41.000000
v 3.332444 -3.119142 -39.813343
v 2.905746 -2.128414 -40.113510
v 4.799987 -3.032015 -40.922760
v 3.216270 -2.135759 -41.000000
v 4.259603 -3.573875 -40.241722
v 4.771060 -3.104974 -41.000000
v 2.886447 -2.258711 -40.251194
v 3.299099 -3.251508 -39.962776
v 4.666533 -3.260630 -41.000000
v 2.862842 -2.390007 -40.389160
v 3.261052 -3.384716 -40.113075
v 4.203806 -3.720210 -40.406845
v 3.068336 -2.387521 -41.000000
v 4.471568 -3.542640 -41.000000
v 2.834981 -2.521829 -40.527290
v 3.218487 -3.517564 -40.263393
v 4.143095 -3.865689 -40.571068
v 2.802885 -2.653697 -40.665459
v 4.276595 -3.816759 -41.000000
v 3.171414 -3.649856 -40.413113
v 4.077270 -4.011026 -40.734978
v 2.919710 -2.633042 -41.000000
v 2.766518 -2.785192 -40.803627
v 3.119515 -3.782556 -40.563107
v 4.080697 -4.084392 -41.000000
v 2.725634 -2.916806 -40.941898
v 2.770128 -2.873047 -41.000000
v 4.006157 -4.156476 -40.899254
v 3.062625 -3.915821 -40.713940
v 3.959430 -4.245296 -41.000000
v 2.706562 -2.972169 -41.000000
v 2.748490 -3.162985 -41.000000
v 2.817838 -3.499885 -41.000000
v 2.884836 -3.848366 -41.000000
v 3.629742 -4.220253 -41.000000
v 3.000753 -4.049260 -40.865608
v 2.941837 -4.166606 -41.000000
v 3.507270 -2.729045 -41.000000
v 3.345885 -2.729046 -41.000000
v 3.300824 -3.363564 -41.000000
v 3.001051 -3.545058 -41.910076
v 3.776862 -3.691167 -42.073029
v 3.776862 -4.042902 -41.757648
v 3.001051 -3.896793 -41.594696
v 4.063940 -3.363563 -41.000000
v 4.183440 -2.729043 -40.999996
v 3.226385 -3.363564 -41.000000
vt 0.375000 0.500000
vt 0.625000 0.750000
vt 0.625000 0.500000
vt 0.375000 0.750000
vt 0.774221 0.000000
vt 0.780772 0.250000
vt 0.875000 0.250000
vt 0.875000 0.000000
vt 0.125000 0.000000
vt 0.125000 0.250000
vt 0.273478 0.250000
vt 0.280029 0.000000
vt 0.375000 0.500000
vt 0.625000 0.500000
vt 0.625000 0.750000
vt 0.375000 0.750000
vt 0.625000 0.405772
vt 0.402167 0.357418
vt 0.375000 0.351522
vt 0.375000 0.905029
vt 0.384554 0.902956
vt 0.625000 0.850779
vt 0.625000 0.339147
vt 0.375000 0.363575
vt 0.423172 0.358868
vt 0.625000 0.863575
vt 0.397219 0.841319
vt 0.375000 0.839148
vt 0.761425 0.000000
vt 0.875000 0.000000
vt 0.875000 0.250000
vt 0.714148 0.250000
vt 0.125000 0.000000
vt 0.214148 0.000000
vt 0.261425 0.250000
vt 0.125000 0.250000
vn 0.628833 0.689538 0.359316
vn 0.628833 0.689538 0.359316
vn 0.629264 0.689686 0.358274
vn 0.629264 0.689686 0.358274
vn 0.625864 0.689286 0.364938
vn 0.625864 0.689286 0.364938
vn 0.626798 0.689732 0.362483
vn 0.631522 0.689536 0.354570
vn 0.631522 0.689536 0.354570
vn 0.631431 0.689536 0.354732
vn 0.631431 0.689536 0.354732
vn 0.631522 0.689536 0.354570
vn 0.634291 0.689415 0.349831
vn 0.634291 0.689415 0.349831
vn 0.634291 0.689415 0.349831
vn 0.634291 0.689415 0.349831
vn 0.637843 0.689295 0.343553
vn 0.637843 0.689295 0.343553
vn 0.637843 0.689295 0.343553
vn 0.637843 0.689295 0.343553
vn 0.641715 0.689062 0.336743
vn 0.641715 0.689062 0.336743
vn 0.641715 0.689062 0.336743
vn 0.641715 0.689062 0.336743
vn 0.645006 0.688684 0.331183
vn 0.645006 0.688684 0.331183
vn 0.645006 0.688684 0.331183
vn 0.645006 0.688684 0.331183
vn 0.648679 0.688220 0.324912
vn 0.648679 0.688220 0.324912
vn 0.648679 0.688220 0.324912
vn 0.648679 0.688220 0.324912
vn 0.653016 0.687634 0.317380
vn 0.653016 0.687634 0.317380
vn 0.653016 0.687634 0.317380
vn 0.653016 0.687634 0.317380
vn 0.658096 0.686835 0.308492
vn 0.658096 0.686835 0.308492
vn 0.658096 0.686835 0.308492
vn 0.658096 0.686835 0.308492
vn 0.882614 -0.277312 0.379594
vn 0.882614 -0.277312 0.379594
vn 0.882562 -0.277311 0.379715
vn 0.882562 -0.277311 0.379715
vn 0.882614 -0.277312 0.379594
vn 0.662602 0.685918 0.300791
vn 0.662602 0.685918 0.300791
vn 0.662602 0.685918 0.300791
vn 0.662602 0.685918 0.300791
vn 0.877834 -0.278902 0.389385
vn 0.877834 -0.278902 0.389385
vn 0.877834 -0.278902 0.389385
vn 0.877834 -0.278902 0.389385
vn 0.667193 0.684851 0.292972
vn 0.667193 0.684851 0.292972
vn 0.667193 0.684851 0.292972
vn 0.667193 0.684851 0.292972
vn 0.873592 -0.280233 0.397878
vn 0.873592 -0.280233 0.397878
vn 0.873592 -0.280233 0.397878
vn 0.873592 -0.280233 0.397878
vn -0.248513 0.968124 -0.031263
vn -0.248513 0.968124 -0.031263
vn -0.248518 0.968123 -0.031256
vn -0.248518 0.968123 -0.031256
vn -0.248513 0.968124 -0.031263
vn 0.869312 -0.281420 0.406325
vn 0.869312 -0.281420 0.406325
vn 0.869312 -0.281420 0.406325
vn 0.869312 -0.281420 0.406325
vn 0.672297 0.683561 0.284183
vn 0.672297 0.683561 0.284183
vn 0.672297 0.683561 0.284183
vn 0.672297 0.683561 0.284183
vn -0.240831 0.969481 -0.045905
vn -0.240831 0.969481 -0.045905
vn -0.240831 0.969481 -0.045905
vn -0.240831 0.969481 -0.045905
vn 0.864337 -0.282511 0.416063
vn 0.864337 -0.282511 0.416063
vn 0.864337 -0.282511 0.416063
vn 0.864337 -0.282511 0.416063
vn 0.678157 0.681932 0.273991
vn 0.678157 0.681932 0.273991
vn 0.678157 0.681932 0.273991
vn 0.678157 0.681932 0.273991
vn -0.233150 0.970572 -0.060264
vn -0.233150 0.970572 -0.060264
vn -0.233150 0.970572 -0.060264
vn -0.233150 0.970572 -0.060264
vn 0.859766 -0.283391 0.424843
vn 0.859766 -0.283391 0.424843
vn 0.859766 -0.283391 0.424843
vn 0.859766 -0.283391 0.424843
vn -0.255966 0.966541 -0.016753
vn -0.255966 0.966541 -0.016753
vn -0.255930 0.966549 -0.016847
vn -0.255930 0.966549 -0.016847
vn 0.887783 -0.275442 0.368746
vn 0.888130 -0.275412 0.367932
vn 0.888130 -0.275412 0.367932
vn 0.887783 -0.275442 0.368746
vn 0.684002 0.680083 0.263872
vn 0.684002 0.680083 0.263872
vn 0.684002 0.680083 0.263872
vn 0.684002 0.680083 0.263872
vn -0.225382 0.971407 -0.074640
vn -0.225382 0.971407 -0.074640
vn -0.225382 0.971407 -0.074640
vn -0.225382 0.971407 -0.074640
vn 0.855789 -0.284102 0.432333
vn 0.855789 -0.284102 0.432333
vn 0.855789 -0.284102 0.432333
vn 0.855789 -0.284102 0.432333
vn -0.217386 0.971988 -0.089346
vn -0.217386 0.971988 -0.089346
vn -0.217386 0.971988 -0.089346
vn -0.217386 0.971988 -0.089346
vn 0.852365 -0.284692 0.438663
vn 0.852365 -0.284692 0.438663
vn 0.852365 -0.284692 0.438663
vn 0.852365 -0.284692 0.438663
vn 0.689484 0.678131 0.254459
vn 0.689484 0.678131 0.254459
vn 0.689484 0.678131 0.254459
vn 0.689484 0.678131 0.254459
vn -0.209028 0.972306 -0.104538
vn -0.209028 0.972306 -0.104538
vn -0.209028 0.972306 -0.104538
vn -0.209028 0.972306 -0.104538
vn 0.848027 -0.285116 0.446720
vn 0.848027 -0.285116 0.446720
vn 0.848027 -0.285116 0.446720
vn 0.848027 -0.285116 0.446720
vn 0.695282 0.675896 0.244432
vn 0.695282 0.675896 0.244432
vn 0.695282 0.675896 0.244432
vn 0.695282 0.675896 0.244432
vn -0.200604 0.972343 -0.119614
vn -0.200604 0.972343 -0.119614
vn -0.200604 0.972343 -0.119614
vn -0.200604 0.972343 -0.119614
vn 0.843871 -0.285388 0.454352
vn 0.843871 -0.285388 0.454352
vn 0.843871 -0.285388 0.454352
vn 0.843871 -0.285388 0.454352
vn -0.263072 0.964772 -0.002745
vn -0.263072 0.964772 -0.002745
vn -0.262932 0.964810 -0.003075
vn -0.262932 0.964810 -0.003075
vn -0.192227 0.972094 -0.134472
vn -0.192227 0.972094 -0.134472
vn -0.192227 0.972094 -0.134472
vn -0.192227 0.972094 -0.134472
vn 0.701607 0.673268 0.233362
vn 0.701607 0.673268 0.233362
vn 0.701607 0.673268 0.233362
vn 0.701607 0.673268 0.233362
vn 0.840331 -0.285589 0.460741
vn 0.840331 -0.285589 0.460741
vn 0.840331 -0.285589 0.460741
vn 0.840331 -0.285589 0.460741
vn -0.183820 0.971546 -0.149361
vn -0.183820 0.971546 -0.149361
vn -0.183820 0.971546 -0.149361
vn -0.183820 0.971546 -0.149361
vn 0.837611 -0.285810 0.465532
vn 0.837611 -0.285810 0.465532
vn 0.837611 -0.285810 0.465532
vn 0.837611 -0.285810 0.465532
vn 0.708478 0.670159 0.221237
vn 0.708478 0.670159 0.221237
vn 0.708478 0.670159 0.221237
vn 0.708478 0.670159 0.221237
vn -0.175195 0.970682 -0.164572
vn -0.175195 0.970682 -0.164572
vn -0.175195 0.970682 -0.164572
vn -0.175195 0.970682 -0.164572
vn 0.892720 -0.273427 0.358174
vn 0.893645 -0.273326 0.355937
vn 0.893645 -0.273326 0.355937
vn 0.892720 -0.273427 0.358174
vn 0.834522 -0.285873 0.471009
vn 0.834522 -0.285873 0.471009
vn 0.834522 -0.285873 0.471009
vn 0.834522 -0.285873 0.471009
vn 0.714844 0.666996 0.210035
vn 0.714844 0.666996 0.210035
vn 0.714844 0.666996 0.210035
vn 0.714844 0.666996 0.210035
vn -0.166289 0.969488 -0.180117
vn -0.166289 0.969488 -0.180117
vn -0.166289 0.969488 -0.180117
vn -0.166289 0.969488 -0.180117
vn -0.269981 0.962802 0.011089
vn -0.269981 0.962802 0.011089
vn -0.269709 0.962885 0.010414
vn -0.269709 0.962885 0.010414
vn 0.830987 -0.285706 0.477319
vn 0.830987 -0.285706 0.477319
vn 0.830987 -0.285706 0.477319
vn 0.830987 -0.285706 0.477319
vn -0.157500 0.968005 -0.195344
vn -0.157500 0.968005 -0.195344
vn -0.157500 0.968005 -0.195344
vn -0.157500 0.968005 -0.195344
vn 0.721224 0.663577 0.198752
vn 0.721224 0.663577 0.198752
vn 0.721224 0.663577 0.198752
vn 0.721224 0.663577 0.198752
vn 0.828036 -0.285561 0.482505
vn 0.828036 -0.285561 0.482505
vn 0.828036 -0.285561 0.482505
vn 0.828036 -0.285561 0.482505
vn -0.148863 0.966230 -0.210331
vn -0.148863 0.966230 -0.210331
vn -0.148863 0.966230 -0.210331
vn -0.148863 0.966230 -0.210331
vn 0.897084 -0.271406 0.348681
vn 0.898114 -0.271218 0.346168
vn 0.898114 -0.271218 0.346168
vn 0.727908 0.659748 0.186768
vn 0.727908 0.659748 0.186768
vn 0.727908 0.659748 0.186768
vn 0.727908 0.659748 0.186768
vn 0.825834 -0.285547 0.486272
vn 0.825834 -0.285547 0.486272
vn 0.825834 -0.285547 0.486272
vn 0.825834 -0.285547 0.486272
vn -0.140279 0.964144 -0.225275
vn -0.140279 0.964144 -0.225275
vn -0.140279 0.964144 -0.225275
vn -0.140279 0.964144 -0.225275
vn 0.824236 -0.285685 0.488896
vn 0.824236 -0.285685 0.488896
vn 0.824236 -0.285685 0.488896
vn 0.824236 -0.285685 0.488896
vn -0.441758 -0.182065 0.878466
vn -0.441758 -0.182065 0.878466
vn -0.441758 -0.182065 0.878466
vn -0.441758 -0.182065 0.878466
vn -0.276728 0.960623 0.025004
vn -0.276728 0.960623 0.025004
vn -0.276427 0.960733 0.024084
vn 0.735073 0.655352 0.173727
vn 0.735073 0.655352 0.173727
vn 0.735073 0.655352 0.173727
vn 0.735073 0.655352 0.173727
vn -0.000004 -0.000000 1.000000
vn -0.000004 0.000000 1.000000
vn -0.000004 0.000000 1.000000
vn -0.000004 0.000000 1.000000
vn -0.000004 0.000000 1.000000
vn -0.000004 0.000000 1.000000
vn -0.000004 0.000000 1.000000
vn -0.000004 0.000000 1.000000
vn -0.000004 0.000000 1.000000
vn -0.000004 0.000000 1.000000
vn -0.000004 0.000000 1.000000
vn -0.000004 0.000000 1.000000
vn -0.000004 0.000000 1.000000
vn -0.000004 0.000000 1.000000
vn -0.000004 0.000000 1.000000
vn -0.000004 0.000000 1.000000
vn -0.000004 0.000000 1.000000
vn -0.000004 -0.000000 1.000000
vn -0.000004 0.000000 1.000000
vn -0.000004 0.000000 1.000000
vn -0.000003 -0.000000 1.000000
vn -0.131362 0.961657 -0.240748
vn -0.131362 0.961657 -0.240748
vn -0.131362 0.961657 -0.240748
vn -0.131362 0.961657 -0.240748
vn 0.821692 -0.285392 0.493329
vn 0.821692 -0.285392 0.493329
vn 0.821692 -0.285392 0.493329
vn 0.821692 -0.285392 0.493329
vn -0.122409 0.958839 -0.256211
vn -0.122409 0.958839 -0.256211
vn -0.122409 0.958839 -0.256211
vn -0.122409 0.958839 -0.256211
vn 0.742276 0.650591 0.160492
vn 0.742276 0.650591 0.160492
vn 0.742276 0.650591 0.160492
vn 0.742276 0.650591 0.160492
vn 0.819433 -0.285109 0.497235
vn 0.819433 -0.285109 0.497235
vn 0.819433 -0.285109 0.497235
vn 0.819433 -0.285109 0.497235
vn -0.113746 0.955774 -0.271217
vn -0.113746 0.955774 -0.271217
vn -0.113746 0.955774 -0.271217
vn -0.113746 0.955774 -0.271217
vn 0.749088 0.645751 0.147893
vn 0.749088 0.645751 0.147893
vn 0.749088 0.645751 0.147893
vn 0.749088 0.645751 0.147893
vn 0.817861 -0.285057 0.499846
vn 0.817861 -0.285057 0.499846
vn 0.817861 -0.285057 0.499846
vn 0.817861 -0.285057 0.499846
vn -0.105347 0.952450 -0.285902
vn -0.105347 0.952450 -0.285902
vn -0.105347 0.952450 -0.285902
vn -0.105347 0.952450 -0.285902
vn 0.755966 0.640541 0.134987
vn 0.755966 0.640541 0.134987
vn 0.755966 0.640541 0.134987
vn 0.755966 0.640541 0.134987
vn 0.817136 -0.285402 0.500834
vn 0.817136 -0.285402 0.500834
vn 0.817136 -0.285402 0.500834
vn 0.817136 -0.285402 0.500834
vn -0.096985 0.948798 -0.300625
vn -0.096985 0.948798 -0.300625
vn -0.096985 0.948798 -0.300625
vn -0.096985 0.948798 -0.300625
vn 0.763058 0.634825 0.121406
vn 0.763058 0.634825 0.121406
vn 0.763058 0.634825 0.121406
vn 0.763058 0.634825 0.121406
vn -0.088231 0.944640 -0.316025
vn -0.088231 0.944640 -0.316025
vn -0.088231 0.944640 -0.316025
vn -0.088231 0.944640 -0.316025
vn 0.816220 -0.285631 0.502194
vn 0.816220 -0.285631 0.502194
vn 0.816220 -0.285631 0.502194
vn 0.816220 -0.285631 0.502194
vn 0.290381 -0.955389 -0.053950
vn 0.290381 -0.955389 -0.053950
vn 0.290359 -0.955399 -0.053891
vn 0.290359 -0.955399 -0.053891
vn 0.290381 -0.955389 -0.053950
vn 0.283525 -0.958157 -0.039357
vn 0.283525 -0.958157 -0.039357
vn 0.283525 -0.958157 -0.039357
vn 0.283525 -0.958157 -0.039357
vn -0.079771 0.940264 -0.330970
vn -0.079771 0.940264 -0.330970
vn -0.079771 0.940264 -0.330970
vn -0.079771 0.940264 -0.330970
vn 0.814774 -0.285489 0.504617
vn 0.814774 -0.285489 0.504617
vn 0.814774 -0.285489 0.504617
vn 0.814774 -0.285489 0.504617
vn 0.770471 0.628445 0.106916
vn 0.770471 0.628445 0.106916
vn 0.770471 0.628445 0.106916
vn 0.770471 0.628445 0.106916
vn 0.276398 -0.960732 -0.024461
vn 0.276398 -0.960732 -0.024461
vn 0.276398 -0.960732 -0.024461
vn 0.276398 -0.960732 -0.024461
vn 0.269267 -0.963015 -0.009859
vn 0.269267 -0.963015 -0.009859
vn 0.269267 -0.963015 -0.009859
vn 0.269267 -0.963015 -0.009859
vn -0.071737 0.935725 -0.345359
vn -0.071737 0.935725 -0.345359
vn -0.071737 0.935725 -0.345359
vn -0.071737 0.935725 -0.345359
vn 0.261974 -0.965063 0.004713
vn 0.261974 -0.965063 0.004713
vn 0.261974 -0.965063 0.004713
vn 0.261974 -0.965063 0.004713
vn 0.813870 -0.285630 0.505995
vn 0.813870 -0.285630 0.505995
vn 0.813870 -0.285630 0.505995
vn 0.813870 -0.285630 0.505995
vn 0.777582 0.621896 0.092805
vn 0.777582 0.621896 0.092805
vn 0.777582 0.621896 0.092805
vn 0.777582 0.621896 0.092805
vn 0.254381 -0.966906 0.019569
vn 0.254381 -0.966906 0.019569
vn 0.254381 -0.966906 0.019569
vn 0.254381 -0.966906 0.019569
vn -0.879957 0.277588 -0.385513
vn -0.879957 0.277588 -0.385513
vn -0.879934 0.277603 -0.385554
vn -0.879934 0.277603 -0.385554
vn -0.879934 0.277603 -0.385554
vn -0.874114 0.279412 -0.397309
vn -0.874114 0.279412 -0.397309
vn -0.874114 0.279412 -0.397309
vn -0.874114 0.279412 -0.397309
vn 0.246384 -0.968540 0.035011
vn 0.246384 -0.968540 0.035011
vn 0.246384 -0.968540 0.035011
vn 0.246384 -0.968540 0.035011
vn -0.064080 0.931018 -0.359304
vn -0.064080 0.931018 -0.359304
vn -0.064080 0.931018 -0.359304
vn -0.064080 0.931018 -0.359304
vn 0.813654 -0.286224 0.506006
vn 0.813654 -0.286224 0.506006
vn 0.813654 -0.286224 0.506006
vn 0.813654 -0.286224 0.506006
vn -0.868337 0.280981 -0.408707
vn -0.868337 0.280981 -0.408707
vn -0.868337 0.280981 -0.408707
vn -0.868337 0.280981 -0.408707
vn 0.238324 -0.969878 0.050377
vn 0.238324 -0.969878 0.050377
vn 0.238324 -0.969878 0.050377
vn 0.238324 -0.969878 0.050377
vn 0.296752 -0.952541 -0.067858
vn 0.296652 -0.952590 -0.067601
vn 0.296652 -0.952590 -0.067601
vn 0.296752 -0.952541 -0.067858
vn -0.862943 0.282188 -0.419166
vn -0.862943 0.282188 -0.419166
vn -0.862943 0.282188 -0.419166
vn -0.862943 0.282188 -0.419166
vn 0.784461 0.615137 0.078918
vn 0.784461 0.615137 0.078918
vn 0.784461 0.615137 0.078918
vn 0.784461 0.615137 0.078918
vn 0.230254 -0.970924 0.065491
vn 0.230254 -0.970924 0.065491
vn 0.230254 -0.970924 0.065491
vn 0.230254 -0.970924 0.065491
vn -0.056197 0.925812 -0.373784
vn -0.056197 0.925812 -0.373784
vn -0.056197 0.925812 -0.373784
vn -0.056197 0.925812 -0.373784
vn -0.858023 0.283049 -0.428580
vn -0.858023 0.283049 -0.428580
vn -0.858023 0.283049 -0.428580
vn -0.858023 0.283049 -0.428580
vn 0.222066 -0.971698 0.080564
vn 0.222066 -0.971698 0.080564
vn 0.222066 -0.971698 0.080564
vn 0.222066 -0.971698 0.080564
vn 0.814153 -0.287397 0.504537
vn 0.814153 -0.287397 0.504537
vn 0.814153 -0.287397 0.504537
vn 0.814153 -0.287397 0.504537
vn -0.852513 0.283863 -0.438911
vn -0.852513 0.283863 -0.438911
vn -0.852513 0.283863 -0.438911
vn -0.852513 0.283863 -0.438911
vn 0.213619 -0.972192 0.095969
vn 0.213619 -0.972192 0.095969
vn 0.213619 -0.972192 0.095969
vn 0.213619 -0.972192 0.095969
vn -0.884921 0.275866 -0.375251
vn -0.884921 0.275866 -0.375251
vn -0.885073 0.275849 -0.374905
vn -0.885073 0.275849 -0.374905
vn -0.846810 0.284521 -0.449400
vn -0.846810 0.284521 -0.449400
vn -0.846810 0.284521 -0.449400
vn -0.846810 0.284521 -0.449400
vn 0.791321 0.607966 0.064725
vn 0.791321 0.607966 0.064725
vn 0.791321 0.607966 0.064725
vn 0.791321 0.607966 0.064725
vn -0.048215 0.920170 -0.388538
vn -0.048215 0.920170 -0.388538
vn -0.048215 0.920170 -0.388538
vn -0.048215 0.920170 -0.388538
vn 0.204865 -0.972380 0.111839
vn 0.204865 -0.972380 0.111839
vn 0.204865 -0.972380 0.111839
vn 0.204865 -0.972380 0.111839
vn 0.813887 -0.287984 0.504632
vn 0.813887 -0.287984 0.504632
vn 0.813887 -0.287984 0.504632
vn 0.813887 -0.287984 0.504632
vn -0.841581 0.284881 -0.458894
vn -0.841581 0.284881 -0.458894
vn -0.841581 0.284881 -0.458894
vn -0.841581 0.284881 -0.458894
vn 0.196196 -0.972255 0.127386
vn 0.196196 -0.972255 0.127386
vn 0.196196 -0.972255 0.127386
vn 0.196196 -0.972255 0.127386
vn 0.302822 -0.949552 -0.081546
vn 0.302606 -0.949666 -0.081017
vn 0.302606 -0.949666 -0.081017
vn 0.302822 -0.949552 -0.081546
vn -0.836962 0.284952 -0.467223
vn -0.836962 0.284952 -0.467223
vn -0.836962 0.284952 -0.467223
vn -0.836962 0.284952 -0.467223
vn -0.040731 0.914472 -0.402594
vn -0.040731 0.914472 -0.402594
vn -0.040731 0.914472 -0.402594
vn -0.040731 0.914472 -0.402594
vn 0.187589 -0.971838 0.142623
vn 0.187589 -0.971838 0.142623
vn 0.187589 -0.971838 0.142623
vn 0.187589 -0.971838 0.142623
vn 0.798265 0.600233 0.049932
vn 0.798265 0.600233 0.049932
vn 0.798265 0.600233 0.049932
vn 0.798265 0.600233 0.049932
vn -0.832304 0.284858 -0.475527
vn -0.832304 0.284858 -0.475527
vn -0.832304 0.284858 -0.475527
vn -0.832304 0.284858 -0.475527
vn -0.000001 -0.000001 1.000000
vn -0.000001 -0.000001 1.000000
vn -0.000001 -0.000001 1.000000
vn -0.000001 -0.000001 1.000000
vn -0.000001 -0.000001 1.000000
vn -0.000001 -0.000001 1.000000
vn -0.000001 -0.000001 1.000000
vn -0.000001 -0.000001 1.000000
vn -0.000001 -0.000001 1.000000
vn 0.813661 -0.288586 0.504653
vn 0.813661 -0.288586 0.504653
vn 0.813661 -0.288586 0.504653
vn 0.813661 -0.288586 0.504653
vn 0.178992 -0.971124 0.157732
vn 0.178992 -0.971124 0.157732
vn 0.178992 -0.971124 0.157732
vn 0.178992 -0.971124 0.157732
vn -0.826964 0.284646 -0.484879
vn -0.826964 0.284646 -0.484879
vn -0.826964 0.284646 -0.484879
vn -0.826964 0.284646 -0.484879
vn 0.170014 -0.970048 0.173501
vn 0.170014 -0.970048 0.173501
vn 0.170014 -0.970048 0.173501
vn 0.170014 -0.970048 0.173501
vn -0.033764 0.908736 -0.416003
vn -0.033764 0.908736 -0.416003
vn -0.033764 0.908736 -0.416003
vn -0.033764 0.908736 -0.416003
vn -0.822096 0.284230 -0.493326
vn -0.822096 0.284230 -0.493326
vn -0.822096 0.284230 -0.493326
vn -0.822096 0.284230 -0.493326
vn 0.805289 0.591876 0.034533
vn 0.805289 0.591876 0.034533
vn 0.805289 0.591876 0.034533
vn 0.805289 0.591876 0.034533
vn 0.160968 -0.968626 0.189347
vn 0.160968 -0.968626 0.189347
vn 0.160968 -0.968626 0.189347
vn 0.160968 -0.968626 0.189347
vn 0.308807 -0.946325 -0.095434
vn 0.308541 -0.946481 -0.094742
vn 0.308541 -0.946481 -0.094742
vn 0.308807 -0.946325 -0.095434
vn 0.813973 -0.289686 0.503518
vn 0.813973 -0.289686 0.503518
vn 0.813973 -0.289686 0.503518
vn 0.813973 -0.289686 0.503518
vn -0.817916 0.283618 -0.500574
vn -0.817916 0.283618 -0.500574
vn -0.817916 0.283618 -0.500574
vn -0.817916 0.283618 -0.500574
vn 0.152158 -0.966933 0.204668
vn 0.152158 -0.966933 0.204668
vn 0.152158 -0.966933 0.204668
vn 0.152158 -0.966933 0.204668
vn -0.027191 0.902910 -0.428969
vn -0.027191 0.902910 -0.428969
vn -0.027191 0.902910 -0.428969
vn -0.027191 0.902910 -0.428969
vn -0.814337 0.282872 -0.506793
vn -0.814337 0.282872 -0.506793
vn -0.814337 0.282872 -0.506793
vn -0.814337 0.282872 -0.506793
vn -0.890069 0.273862 -0.364384
vn -0.890070 0.273862 -0.364384
vn -0.890411 0.273779 -0.363612
vn -0.890411 0.273779 -0.363612
vn 0.143527 -0.964977 0.219588
vn 0.143527 -0.964977 0.219588
vn 0.143527 -0.964977 0.219588
vn 0.143527 -0.964977 0.219588
vn -0.809818 0.281932 -0.514499
vn -0.809818 0.281932 -0.514499
vn -0.809818 0.281932 -0.514499
vn -0.809818 0.281932 -0.514499
vn 0.814914 -0.291467 0.500961
vn 0.814914 -0.291467 0.500961
vn 0.814914 -0.291467 0.500961
vn 0.814914 -0.291467 0.500961
vn 0.811941 0.583412 0.019576
vn 0.811941 0.583412 0.019576
vn 0.811941 0.583412 0.019576
vn 0.811941 0.583412 0.019576
vn -0.020175 0.896316 -0.442957
vn -0.020175 0.896316 -0.442957
vn -0.020175 0.896316 -0.442957
vn -0.020175 0.896316 -0.442957
vn -0.805533 0.280856 -0.521762
vn -0.805533 0.280856 -0.521762
vn -0.805533 0.280856 -0.521762
vn -0.805533 0.280856 -0.521762
vn 0.134915 -0.962708 0.234503
vn 0.134915 -0.962708 0.234503
vn 0.134915 -0.962708 0.234503
vn 0.134915 -0.962708 0.234503
vn 0.314745 -0.942834 -0.109540
vn 0.314447 -0.943040 -0.108624
vn 0.314447 -0.943040 -0.108624
vn 0.314745 -0.942834 -0.109540
vn -0.801961 0.279706 -0.527848
vn -0.801961 0.279706 -0.527848
vn -0.801961 0.279706 -0.527848
vn -0.801961 0.279706 -0.527848
vn 0.125848 -0.959952 0.250308
vn 0.125848 -0.959952 0.250308
vn 0.125848 -0.959952 0.250308
vn 0.125848 -0.959952 0.250308
vn 0.816160 -0.293702 0.497616
vn 0.816160 -0.293702 0.497616
vn 0.816160 -0.293702 0.497616
vn 0.816160 -0.293702 0.497616
vn 0.818354 0.574695 0.004721
vn 0.818354 0.574695 0.004721
vn 0.818354 0.574695 0.004721
vn 0.818354 0.574695 0.004721
vn -0.013446 0.889561 -0.456618
vn -0.013446 0.889561 -0.456618
vn -0.013446 0.889561 -0.456618
vn -0.013446 0.889561 -0.456618
vn -0.799299 0.278563 -0.532469
vn -0.799299 0.278563 -0.532469
vn -0.799299 0.278563 -0.532469
vn -0.799299 0.278563 -0.532469
vn 0.117047 -0.956939 0.265646
vn 0.117047 -0.956939 0.265646
vn 0.117047 -0.956939 0.265646
vn 0.117047 -0.956939 0.265646
vn 0.320094 -0.939411 -0.122667
vn 0.319988 -0.939593 -0.121546
vn 0.319988 -0.939593 -0.121546
vn -0.796257 0.277237 -0.537693
vn -0.796257 0.277237 -0.537693
vn -0.796257 0.277237 -0.537693
vn -0.796257 0.277237 -0.537693
vn -0.895645 0.271398 -0.352369
vn -0.895645 0.271398 -0.352369
vn -0.896018 0.271319 -0.351478
vn -0.585739 -0.673976 -0.450186
vn -0.585739 -0.673976 -0.450186
vn -0.586190 -0.674394 -0.448969
vn -0.586190 -0.674394 -0.448969
vn -0.585739 -0.673976 -0.450186
vn 0.108585 -0.953735 0.280356
vn 0.108585 -0.953735 0.280356
vn 0.108585 -0.953735 0.280356
vn 0.108585 -0.953735 0.280356
vn 0.816666 -0.295181 0.495908
vn 0.816666 -0.295181 0.495908
vn 0.816666 -0.295181 0.495908
vn 0.816666 -0.295181 0.495908
vn -0.586117 -0.674821 -0.448424
vn -0.586117 -0.674821 -0.448424
vn -0.586117 -0.674821 -0.448424
vn -0.586117 -0.674821 -0.448424
vn -0.007313 0.882926 -0.469454
vn -0.007313 0.882926 -0.469454
vn -0.007313 0.882926 -0.469454
vn -0.007313 0.882926 -0.469454
vn 0.824628 0.565581 -0.010368
vn 0.824628 0.565581 -0.010368
vn 0.824628 0.565581 -0.010368
vn 0.824628 0.565581 -0.010368
vn -0.792772 0.275690 -0.543607
vn -0.792772 0.275690 -0.543607
vn -0.792772 0.275690 -0.543607
vn -0.792772 0.275690 -0.543607
vn -0.587305 -0.676040 -0.445019
vn -0.587305 -0.676040 -0.445019
vn -0.587305 -0.676040 -0.445019
vn -0.587305 -0.676040 -0.445019
vn -0.586009 -0.673482 -0.450572
vn -0.586862 -0.674306 -0.448224
vn -0.586862 -0.674306 -0.448224
vn 0.100469 -0.950357 0.294494
vn 0.100469 -0.950357 0.294494
vn 0.100469 -0.950357 0.294494
vn 0.100469 -0.950357 0.294494
vn -0.587824 -0.676893 -0.443033
vn -0.587824 -0.676893 -0.443033
vn -0.587824 -0.676893 -0.443033
vn -0.587824 -0.676893 -0.443033
vn -0.789950 0.274187 -0.548453
vn -0.789950 0.274187 -0.548453
vn -0.789950 0.274187 -0.548453
vn -0.789950 0.274187 -0.548453
vn -0.588443 -0.677754 -0.440891
vn -0.588443 -0.677754 -0.440891
vn -0.588443 -0.677754 -0.440891
vn -0.588443 -0.677754 -0.440891
vn 0.817425 -0.297020 0.493554
vn 0.817425 -0.297020 0.493554
vn 0.817425 -0.297020 0.493554
vn 0.817425 -0.297020 0.493554
vn -0.589705 -0.678820 -0.437551
vn -0.589705 -0.678820 -0.437551
vn -0.589705 -0.678820 -0.437551
vn -0.589705 -0.678820 -0.437551
vn 0.092084 -0.946504 0.309276
vn 0.092084 -0.946504 0.309276
vn 0.092084 -0.946504 0.309276
vn 0.092084 -0.946504 0.309276
vn -0.001751 0.876419 -0.481546
vn -0.001751 0.876419 -0.481546
vn -0.001751 0.876419 -0.481546
vn -0.001751 0.876419 -0.481546
vn -0.591952 -0.680161 -0.432403
vn -0.591952 -0.680161 -0.432403
vn -0.591952 -0.680161 -0.432403
vn -0.591952 -0.680161 -0.432403
vn -0.787982 0.272814 -0.551957
vn -0.787982 0.272814 -0.551957
vn -0.787982 0.272814 -0.551957
vn -0.787982 0.272814 -0.551957
vn 0.830843 0.555901 -0.025957
vn 0.830843 0.555901 -0.025957
vn 0.830843 0.555901 -0.025957
vn 0.830843 0.555901 -0.025957
vn -0.593853 -0.681304 -0.427976
vn -0.593853 -0.681304 -0.427976
vn -0.593853 -0.681304 -0.427976
vn -0.593853 -0.681304 -0.427976
vn 0.083546 -0.942192 0.324490
vn 0.083546 -0.942192 0.324490
vn 0.083546 -0.942192 0.324490
vn 0.083546 -0.942192 0.324490
vn -0.595524 -0.682305 -0.424041
vn -0.595524 -0.682305 -0.424041
vn -0.595524 -0.682305 -0.424041
vn -0.595524 -0.682305 -0.424041
vn -0.786694 0.271586 -0.554394
vn -0.786694 0.271586 -0.554394
vn -0.786694 0.271586 -0.554394
vn -0.786694 0.271586 -0.554394
vn -0.597789 -0.683367 -0.419115
vn -0.597789 -0.683367 -0.419115
vn -0.597789 -0.683367 -0.419115
vn -0.597789 -0.683367 -0.419115
vn 0.818624 -0.299529 0.490039
vn 0.818624 -0.299529 0.490039
vn 0.818624 -0.299529 0.490039
vn 0.818624 -0.299529 0.490039
vn 0.003573 0.869736 -0.493505
vn 0.003573 0.869736 -0.493505
vn 0.003573 0.869736 -0.493505
vn 0.003573 0.869736 -0.493505
vn -0.600964 -0.684517 -0.412649
vn -0.600964 -0.684517 -0.412649
vn -0.600964 -0.684517 -0.412649
vn -0.600964 -0.684517 -0.412649
vn 0.075466 -0.937777 0.338937
vn 0.075466 -0.937777 0.338937
vn 0.075466 -0.937777 0.338937
vn 0.075466 -0.937777 0.338937
vn -0.784399 0.269907 -0.558452
vn -0.784399 0.269907 -0.558452
vn -0.784399 0.269907 -0.558452
vn -0.784399 0.269907 -0.558452
vn -0.604522 -0.685606 -0.405583
vn -0.604522 -0.685606 -0.405583
vn -0.604522 -0.685606 -0.405583
vn -0.604522 -0.685606 -0.405583
vn 0.836943 0.545684 -0.041909
vn 0.836943 0.545684 -0.041909
vn 0.836943 0.545684 -0.041909
vn 0.836943 0.545684 -0.041909
vn -0.607388 -0.686476 -0.399788
vn -0.607388 -0.686476 -0.399788
vn -0.607388 -0.686476 -0.399788
vn -0.607388 -0.686476 -0.399788
vn -0.782442 0.268272 -0.561974
vn -0.782442 0.268272 -0.561974
vn -0.782442 0.268272 -0.561974
vn -0.782442 0.268272 -0.561974
vn 0.067821 -0.933292 0.352657
vn 0.067821 -0.933292 0.352657
vn 0.067821 -0.933292 0.352657
vn 0.067821 -0.933292 0.352657
vn -0.610710 -0.687276 -0.393299
vn -0.610710 -0.687276 -0.393299
vn -0.610710 -0.687276 -0.393299
vn -0.610710 -0.687276 -0.393299
vn 0.820328 -0.302928 0.485074
vn 0.820328 -0.302928 0.485074
vn 0.820328 -0.302928 0.485074
vn 0.820328 -0.302928 0.485074
vn 0.009253 0.862199 -0.506486
vn 0.009253 0.862199 -0.506486
vn 0.009253 0.862199 -0.506486
vn 0.009253 0.862199 -0.506486
vn -0.614797 -0.687994 -0.385602
vn -0.614797 -0.687994 -0.385602
vn -0.614797 -0.687994 -0.385602
vn -0.614797 -0.687994 -0.385602
vn -0.781258 0.266893 -0.564272
vn -0.781258 0.266893 -0.564272
vn -0.781258 0.266893 -0.564272
vn -0.781258 0.266893 -0.564272
vn 0.060575 -0.928721 0.365798
vn 0.060575 -0.928721 0.365798
vn 0.060575 -0.928721 0.365798
vn 0.060575 -0.928721 0.365798
vn -0.619802 -0.688586 -0.376424
vn -0.619802 -0.688586 -0.376424
vn -0.619802 -0.688586 -0.376424
vn -0.619802 -0.688586 -0.376424
vn 0.842668 0.535353 -0.057513
vn 0.842668 0.535353 -0.057513
vn 0.842668 0.535353 -0.057513
vn 0.842668 0.535353 -0.057513
vn -0.624097 -0.689006 -0.368474
vn -0.624097 -0.689006 -0.368474
vn -0.624097 -0.689006 -0.368474
vn -0.624097 -0.689006 -0.368474
vn -0.781048 0.265924 -0.565021
vn -0.781048 0.265924 -0.565021
vn -0.781048 0.265924 -0.565021
vn -0.781048 0.265924 -0.565021
vn 0.014437 0.854796 -0.518763
vn 0.014437 0.854796 -0.518763
vn 0.014437 0.854796 -0.518763
vn 0.014437 0.854796 -0.518763
vn 0.821921 -0.306402 0.480170
vn 0.821921 -0.306402 0.480170
vn 0.821921 -0.306402 0.480170
vn 0.821921 -0.306402 0.480170
vn -0.628509 -0.689264 -0.360405
vn -0.628509 -0.689264 -0.360405
vn -0.628509 -0.689264 -0.360405
vn -0.628509 -0.689264 -0.360405
vn 0.052799 -0.923383 0.380231
vn 0.052799 -0.923383 0.380231
vn 0.052799 -0.923383 0.380231
vn 0.052799 -0.923383 0.380231
vn -0.633522 -0.689309 -0.351431
vn -0.633522 -0.689309 -0.351431
vn -0.633522 -0.689309 -0.351431
vn -0.633522 -0.689309 -0.351431
vn -0.780647 0.264822 -0.566091
vn -0.780647 0.264822 -0.566091
vn -0.780647 0.264822 -0.566091
vn -0.780647 0.264822 -0.566091
vn -0.639465 -0.689070 -0.340980
vn -0.639465 -0.689070 -0.340980
vn -0.639465 -0.689070 -0.340980
vn -0.639465 -0.689070 -0.340980
vn 0.848079 0.524820 -0.072982
vn 0.848079 0.524820 -0.072982
vn 0.848079 0.524820 -0.072982
vn 0.848079 0.524820 -0.072982
vn 0.045300 -0.917844 0.394348
vn 0.045300 -0.917844 0.394348
vn 0.045300 -0.917844 0.394348
vn 0.045300 -0.917844 0.394348
vn 0.019005 0.847699 -0.530137
vn 0.019005 0.847699 -0.530137
vn 0.019005 0.847699 -0.530137
vn 0.019005 0.847699 -0.530137
vn -0.645392 -0.688620 -0.330562
vn -0.645392 -0.688620 -0.330562
vn -0.645392 -0.688620 -0.330562
vn -0.645392 -0.688620 -0.330562
vn 0.823036 -0.309293 0.476392
vn 0.823036 -0.309293 0.476392
vn 0.823036 -0.309293 0.476392
vn 0.823036 -0.309293 0.476392
vn -0.779672 0.263351 -0.568118
vn -0.779672 0.263351 -0.568118
vn -0.779672 0.263351 -0.568118
vn -0.779672 0.263351 -0.568118
vn -0.650876 -0.688035 -0.320887
vn -0.650876 -0.688035 -0.320887
vn -0.650876 -0.688035 -0.320887
vn -0.650876 -0.688035 -0.320887
vn 0.038328 -0.912363 0.407584
vn 0.038328 -0.912363 0.407584
vn 0.038328 -0.912363 0.407584
vn 0.038328 -0.912363 0.407584
vn -0.779323 0.262214 -0.569122
vn -0.779323 0.262214 -0.569122
vn -0.779323 0.262214 -0.569122
vn -0.779323 0.262214 -0.569122
vn -0.656766 -0.687154 -0.310610
vn -0.656766 -0.687154 -0.310610
vn -0.656766 -0.687154 -0.310610
vn -0.656766 -0.687154 -0.310610
vn 0.853230 0.513957 -0.088580
vn 0.853230 0.513957 -0.088580
vn 0.853230 0.513957 -0.088580
vn 0.853230 0.513957 -0.088580
vn 0.022971 0.840951 -0.540623
vn 0.022971 0.840951 -0.540623
vn 0.022971 0.840951 -0.540623
vn 0.022971 0.840951 -0.540623
vn -0.663290 -0.685889 -0.299337
vn -0.663290 -0.685889 -0.299337
vn -0.663290 -0.685889 -0.299337
vn -0.663290 -0.685889 -0.299337
vn 0.031882 -0.906987 0.419950
vn 0.031882 -0.906987 0.419950
vn 0.031882 -0.906987 0.419950
vn 0.031882 -0.906987 0.419950
vn 0.824373 -0.312749 0.471802
vn 0.824373 -0.312749 0.471802
vn 0.824373 -0.312749 0.471802
vn 0.824373 -0.312749 0.471802
vn -0.779751 0.261558 -0.568838
vn -0.779751 0.261558 -0.568838
vn -0.779751 0.261558 -0.568838
vn -0.779751 0.261558 -0.568838
vn -0.670525 -0.684177 -0.286876
vn -0.670525 -0.684177 -0.286876
vn -0.670525 -0.684177 -0.286876
vn -0.670525 -0.684177 -0.286876
vn 0.025663 -0.901441 0.432142
vn 0.025663 -0.901441 0.432142
vn 0.025663 -0.901441 0.432142
vn 0.025663 -0.901441 0.432142
vn -0.677131 -0.682392 -0.275381
vn -0.677131 -0.682392 -0.275381
vn -0.677131 -0.682392 -0.275381
vn -0.677131 -0.682392 -0.275381
vn -0.781024 0.261508 -0.567111
vn -0.781024 0.261508 -0.567111
vn -0.781024 0.261508 -0.567111
vn -0.781024 0.261508 -0.567111
vn 0.026929 0.833730 -0.551516
vn 0.026929 0.833730 -0.551516
vn 0.026929 0.833730 -0.551516
vn 0.026929 0.833730 -0.551516
vn 0.858181 0.502589 -0.104550
vn 0.858181 0.502589 -0.104550
vn 0.858181 0.502589 -0.104550
vn 0.858181 0.502589 -0.104550
vn 0.825995 -0.316984 0.466104
vn 0.825995 -0.316984 0.466104
vn 0.825995 -0.316984 0.466104
vn 0.825995 -0.316984 0.466104
vn -0.683786 -0.680328 -0.263800
vn -0.683786 -0.680328 -0.263800
vn -0.683786 -0.680328 -0.263800
vn -0.683786 -0.680328 -0.263800
vn 0.019004 -0.895004 0.445653
vn 0.019004 -0.895004 0.445653
vn 0.019004 -0.895004 0.445653
vn 0.019004 -0.895004 0.445653
vn -0.781447 0.260837 -0.566837
vn -0.781447 0.260837 -0.566837
vn -0.781447 0.260837 -0.566837
vn -0.781447 0.260837 -0.566837
vn -0.690830 -0.677833 -0.251586
vn -0.690830 -0.677833 -0.251586
vn -0.690830 -0.677833 -0.251586
vn -0.690830 -0.677833 -0.251586
vn 0.030996 0.825818 -0.563085
vn 0.030996 0.825818 -0.563085
vn 0.030996 0.825818 -0.563085
vn 0.030996 0.825818 -0.563085
vn -0.698503 -0.674774 -0.238271
vn -0.698503 -0.674774 -0.238271
vn -0.698503 -0.674774 -0.238271
vn -0.698503 -0.674774 -0.238271
vn 0.862901 0.490723 -0.120803
vn 0.862901 0.490723 -0.120803
vn 0.862901 0.490723 -0.120803
vn 0.862901 0.490723 -0.120803
vn -0.781934 0.260223 -0.566448
vn -0.781934 0.260223 -0.566448
vn -0.781934 0.260223 -0.566448
vn -0.781934 0.260223 -0.566448
vn 0.012849 -0.888664 0.458380
vn 0.012849 -0.888664 0.458380
vn 0.012849 -0.888664 0.458380
vn 0.012849 -0.888664 0.458380
vn 0.827934 -0.322256 0.458995
vn 0.827934 -0.322256 0.458995
vn 0.827934 -0.322256 0.458995
vn 0.827934 -0.322256 0.458995
vn -0.706258 -0.671356 -0.224680
vn -0.706258 -0.671356 -0.224680
vn -0.706258 -0.671356 -0.224680
vn -0.706258 -0.671356 -0.224680
vn -0.783028 0.260154 -0.564967
vn -0.783028 0.260154 -0.564967
vn -0.783028 0.260154 -0.564967
vn -0.783028 0.260154 -0.564967
vn 0.034512 0.818303 -0.573751
vn 0.034512 0.818303 -0.573751
vn 0.034512 0.818303 -0.573751
vn 0.034512 0.818303 -0.573751
vn -0.713542 -0.667844 -0.211760
vn -0.713542 -0.667844 -0.211760
vn -0.713542 -0.667844 -0.211760
vn -0.713542 -0.667844 -0.211760
vn 0.007245 -0.882562 0.470140
vn 0.007245 -0.882562 0.470140
vn 0.007245 -0.882562 0.470140
vn 0.007245 -0.882562 0.470140
vn 0.867226 0.478767 -0.136755
vn 0.867226 0.478767 -0.136755
vn 0.867226 0.478767 -0.136755
vn 0.867226 0.478767 -0.136755
vn 0.829522 -0.327183 0.452598
vn 0.829522 -0.327183 0.452598
vn 0.829522 -0.327183 0.452598
vn 0.829522 -0.327183 0.452598
vn -0.720962 -0.663923 -0.198545
vn -0.720962 -0.663923 -0.198545
vn -0.720962 -0.663923 -0.198545
vn -0.720962 -0.663923 -0.198545
vn -0.784855 0.260807 -0.562124
vn -0.784855 0.260807 -0.562124
vn -0.784855 0.260807 -0.562124
vn -0.784855 0.260807 -0.562124
vn 0.002209 -0.876782 0.480884
vn 0.002209 -0.876782 0.480884
vn 0.002209 -0.876782 0.480884
vn 0.002209 -0.876782 0.480884
vn -0.728682 -0.659470 -0.184723
vn -0.728682 -0.659470 -0.184723
vn -0.728682 -0.659470 -0.184723
vn -0.728682 -0.659470 -0.184723
vn 0.037451 0.811285 -0.583451
vn 0.037451 0.811285 -0.583451
vn 0.037451 0.811285 -0.583451
vn 0.037451 0.811285 -0.583451
vn -0.787088 0.261953 -0.558456
vn -0.787088 0.261953 -0.558456
vn -0.787088 0.261953 -0.558456
vn -0.787088 0.261953 -0.558456
vn -0.736871 -0.654338 -0.169890
vn -0.736871 -0.654338 -0.169890
vn -0.736871 -0.654338 -0.169890
vn -0.736871 -0.654338 -0.169890
vn 0.871160 0.466721 -0.152486
vn 0.871160 0.466721 -0.152486
vn 0.871160 0.466721 -0.152486
vn 0.871160 0.466721 -0.152486
vn 0.830837 -0.331830 0.446764
vn 0.830837 -0.331830 0.446764
vn 0.830837 -0.331830 0.446764
vn 0.830837 -0.331830 0.446764
vn -0.002850 -0.870529 0.492110
vn -0.002850 -0.870529 0.492110
vn -0.002850 -0.870529 0.492110
vn -0.002850 -0.870529 0.492110
vn -0.744706 -0.649044 -0.155420
vn -0.744706 -0.649044 -0.155420
vn -0.744706 -0.649044 -0.155420
vn -0.744706 -0.649044 -0.155420
vn 0.039833 0.804821 -0.592179
vn 0.039833 0.804821 -0.592179
vn 0.039833 0.804821 -0.592179
vn 0.039833 0.804821 -0.592179
vn -0.788475 0.262308 -0.556328
vn -0.788475 0.262308 -0.556328
vn -0.788475 0.262308 -0.556328
vn -0.788475 0.262308 -0.556328
vn -0.008058 -0.863541 0.504214
vn -0.008058 -0.863541 0.504214
vn -0.008058 -0.863541 0.504214
vn -0.008058 -0.863541 0.504214
vn -0.752309 -0.643509 -0.141166
vn -0.752309 -0.643509 -0.141166
vn -0.752309 -0.643509 -0.141166
vn -0.752309 -0.643509 -0.141166
vn 0.832238 -0.337118 0.440149
vn 0.832238 -0.337118 0.440149
vn 0.832238 -0.337118 0.440149
vn 0.832238 -0.337118 0.440149
vn 0.874738 0.454459 -0.168225
vn 0.874738 0.454459 -0.168225
vn 0.874738 0.454459 -0.168225
vn 0.874738 0.454459 -0.168225
vn -0.790151 0.263066 -0.553586
vn -0.790151 0.263066 -0.553586
vn -0.790151 0.263066 -0.553586
vn -0.790151 0.263066 -0.553586
vn 0.042348 0.797496 -0.601836
vn 0.042348 0.797496 -0.601836
vn 0.042348 0.797496 -0.601836
vn 0.042348 0.797496 -0.601836
vn -0.759955 -0.637515 -0.126665
vn -0.759955 -0.637515 -0.126665
vn -0.759955 -0.637515 -0.126665
vn -0.759955 -0.637515 -0.126665
vn -0.012720 -0.856895 0.515333
vn -0.012720 -0.856895 0.515333
vn -0.012720 -0.856895 0.515333
vn -0.012720 -0.856895 0.515333
vn -0.792339 0.264557 -0.549734
vn -0.792339 0.264557 -0.549734
vn -0.792339 0.264557 -0.549734
vn -0.792339 0.264557 -0.549734
vn -0.767777 -0.630923 -0.111600
vn -0.767777 -0.630923 -0.111600
vn -0.767777 -0.630923 -0.111600
vn -0.767777 -0.630923 -0.111600
vn 0.833741 -0.343251 0.432499
vn 0.833741 -0.343251 0.432499
vn 0.833741 -0.343251 0.432499
vn 0.833741 -0.343251 0.432499
vn 0.877996 0.441806 -0.184199
vn 0.877996 0.441806 -0.184199
vn 0.877996 0.441806 -0.184199
vn 0.877996 0.441806 -0.184199
vn -0.016865 -0.850669 0.525431
vn -0.016865 -0.850669 0.525431
vn -0.016865 -0.850669 0.525431
vn -0.016865 -0.850669 0.525431
vn 0.044746 0.789818 -0.611707
vn 0.044746 0.789818 -0.611707
vn 0.044746 0.789818 -0.611707
vn 0.044746 0.789818 -0.611707
vn -0.775782 -0.623683 -0.095824
vn -0.775782 -0.623683 -0.095824
vn -0.775782 -0.623683 -0.095824
vn -0.775782 -0.623683 -0.095824
vn -0.795158 0.267012 -0.544452
vn -0.795158 0.267012 -0.544452
vn -0.795158 0.267012 -0.544452
vn -0.795158 0.267012 -0.544452
vn -0.783359 -0.616338 -0.080471
vn -0.783359 -0.616338 -0.080471
vn -0.783359 -0.616338 -0.080471
vn -0.783359 -0.616338 -0.080471
vn 0.835321 -0.350432 0.423598
vn 0.835321 -0.350432 0.423598
vn 0.835321 -0.350432 0.423598
vn 0.835321 -0.350432 0.423598
vn -0.020466 -0.844987 0.534394
vn -0.020466 -0.844987 0.534394
vn -0.020466 -0.844987 0.534394
vn -0.020466 -0.844987 0.534394
vn -0.797891 0.269551 -0.539178
vn -0.797891 0.269551 -0.539178
vn -0.797891 0.269551 -0.539178
vn -0.797891 0.269551 -0.539178
vn 0.880951 0.428629 -0.200506
vn 0.880951 0.428629 -0.200506
vn 0.880951 0.428629 -0.200506
vn 0.880951 0.428629 -0.200506
vn 0.046654 0.782727 -0.620614
vn 0.046654 0.782727 -0.620614
vn 0.046654 0.782727 -0.620614
vn 0.046654 0.782727 -0.620614
vn -0.790717 -0.608697 -0.065227
vn -0.790717 -0.608697 -0.065227
vn -0.790717 -0.608697 -0.065227
vn -0.790717 -0.608697 -0.065227
vn -0.800065 0.271479 -0.534972
vn -0.800065 0.271479 -0.534972
vn -0.800065 0.271479 -0.534972
vn -0.800065 0.271479 -0.534972
vn -0.024245 -0.838423 0.544481
vn -0.024245 -0.838423 0.544481
vn -0.024245 -0.838423 0.544481
vn -0.024245 -0.838423 0.544481
vn 0.836521 -0.357056 0.415624
vn 0.836521 -0.357056 0.415624
vn 0.836521 -0.357056 0.415624
vn 0.836521 -0.357056 0.415624
vn -0.797997 -0.600599 -0.049822
vn -0.797997 -0.600599 -0.049822
vn -0.797997 -0.600599 -0.049822
vn -0.797997 -0.600599 -0.049822
vn 0.883480 0.415443 -0.216494
vn 0.883480 0.415443 -0.216494
vn 0.883480 0.415443 -0.216494
vn 0.883480 0.415443 -0.216494
vn 0.048076 0.776310 -0.628516
vn 0.048076 0.776310 -0.628516
vn 0.048076 0.776310 -0.628516
vn 0.048076 0.776310 -0.628516
vn -0.802506 0.274038 -0.529988
vn -0.802506 0.274038 -0.529988
vn -0.802506 0.274038 -0.529988
vn -0.802506 0.274038 -0.529988
vn -0.805299 -0.591897 -0.033930
vn -0.805299 -0.591897 -0.033930
vn -0.805299 -0.591897 -0.033930
vn -0.805299 -0.591897 -0.033930
vn -0.027913 -0.831461 0.554881
vn -0.027913 -0.831461 0.554881
vn -0.027913 -0.831461 0.554881
vn -0.027913 -0.831461 0.554881
vn 0.837495 -0.363575 0.407940
vn 0.837495 -0.363575 0.407940
vn 0.837495 -0.363575 0.407940
vn 0.837495 -0.363575 0.407940
vn 0.049058 0.770594 -0.635436
vn 0.049058 0.770594 -0.635436
vn 0.049058 0.770594 -0.635436
vn 0.049058 0.770594 -0.635436
vn -0.812547 -0.582631 -0.017573
vn -0.812547 -0.582631 -0.017573
vn -0.812547 -0.582631 -0.017573
vn -0.812547 -0.582631 -0.017573
vn -0.805293 0.277448 -0.523952
vn -0.805293 0.277448 -0.523952
vn -0.805293 0.277448 -0.523952
vn -0.805293 0.277448 -0.523952
vn 0.885576 0.402316 -0.232156
vn 0.885576 0.402316 -0.232156
vn 0.885576 0.402316 -0.232156
vn 0.885576 0.402316 -0.232156
vn -0.031102 -0.825023 0.564243
vn -0.031102 -0.825023 0.564243
vn -0.031102 -0.825023 0.564243
vn -0.031102 -0.825023 0.564243
vn -0.819387 -0.573239 -0.001533
vn -0.819387 -0.573239 -0.001533
vn -0.819387 -0.573239 -0.001533
vn -0.819387 -0.573239 -0.001533
vn -0.808526 0.281990 -0.516495
vn -0.808526 0.281990 -0.516495
vn -0.808526 0.281990 -0.516495
vn -0.808526 0.281990 -0.516495
vn 0.838394 -0.370739 0.399559
vn 0.838394 -0.370739 0.399559
vn 0.838394 -0.370739 0.399559
vn 0.838394 -0.370739 0.399559
vn 0.050148 0.763754 -0.643556
vn 0.050148 0.763754 -0.643556
vn 0.050148 0.763754 -0.643556
vn 0.050148 0.763754 -0.643556
vn -0.033852 -0.819183 0.572533
vn -0.033852 -0.819183 0.572533
vn -0.033852 -0.819183 0.572533
vn -0.033852 -0.819183 0.572533
vn 0.887257 0.389129 -0.247697
vn 0.887257 0.389129 -0.247697
vn 0.887257 0.389129 -0.247697
vn 0.887257 0.389129 -0.247697
vn -0.825930 -0.563590 0.014340
vn -0.825930 -0.563590 0.014340
vn -0.825930 -0.563590 0.014340
vn -0.825930 -0.563590 0.014340
vn -0.811372 0.286165 -0.509692
vn -0.811372 0.286165 -0.509692
vn -0.811372 0.286165 -0.509692
vn -0.811372 0.286165 -0.509692
vn -0.832269 -0.553546 0.030269
vn -0.832269 -0.553546 0.030269
vn -0.832269 -0.553546 0.030269
vn -0.832269 -0.553546 0.030269
vn 0.051041 0.756827 -0.651619
vn 0.051041 0.756827 -0.651619
vn 0.051041 0.756827 -0.651619
vn 0.051041 0.756827 -0.651619
vn -0.036178 -0.814023 0.579705
vn -0.036178 -0.814023 0.579705
vn -0.036178 -0.814023 0.579705
vn -0.036178 -0.814023 0.579705
vn 0.839204 -0.378748 0.390239
vn 0.839204 -0.378748 0.390239
vn 0.839204 -0.378748 0.390239
vn 0.839204 -0.378748 0.390239
vn 0.888540 0.375688 -0.263354
vn 0.888540 0.375688 -0.263354
vn 0.888540 0.375688 -0.263354
vn 0.888540 0.375688 -0.263354
vn -0.813902 0.290054 -0.503421
vn -0.813902 0.290054 -0.503421
vn -0.813902 0.290054 -0.503421
vn -0.813902 0.290054 -0.503421
vn -0.838466 -0.542962 0.046560
vn -0.838466 -0.542962 0.046560
vn -0.838466 -0.542962 0.046560
vn -0.838466 -0.542962 0.046560
vn -0.038639 -0.807719 0.588300
vn -0.038639 -0.807719 0.588300
vn -0.038639 -0.807719 0.588300
vn -0.038639 -0.807719 0.588300
vn 0.051562 0.750653 -0.658681
vn 0.051562 0.750653 -0.658681
vn 0.051562 0.750653 -0.658681
vn 0.051562 0.750653 -0.658681
vn 0.839867 -0.387756 0.379828
vn 0.839867 -0.387756 0.379828
vn 0.839867 -0.387756 0.379828
vn 0.839867 -0.387756 0.379828
vn -0.816550 0.294657 -0.496410
vn -0.816550 0.294657 -0.496410
vn -0.816550 0.294657 -0.496410
vn -0.816550 0.294657 -0.496410
vn -0.844476 -0.531845 0.063252
vn -0.844476 -0.531845 0.063252
vn -0.844476 -0.531845 0.063252
vn -0.844476 -0.531845 0.063252
vn 0.889443 0.361673 -0.279436
vn 0.889443 0.361673 -0.279436
vn 0.889443 0.361673 -0.279436
vn 0.889443 0.361673 -0.279436
vn -0.040895 -0.801278 0.596893
vn -0.040895 -0.801278 0.596893
vn -0.040895 -0.801278 0.596893
vn -0.040895 -0.801278 0.596893
vn -0.850068 -0.520612 0.079673
vn -0.850068 -0.520612 0.079673
vn -0.850068 -0.520612 0.079673
vn -0.850068 -0.520612 0.079673
vn -0.819352 0.300179 -0.488421
vn -0.819352 0.300179 -0.488421
vn -0.819352 0.300179 -0.488421
vn -0.819352 0.300179 -0.488421
vn 0.051739 0.745294 -0.664726
vn 0.051739 0.745294 -0.664726
vn 0.051739 0.745294 -0.664726
vn 0.051739 0.745294 -0.664726
vn 0.840193 -0.396141 0.370335
vn 0.840193 -0.396141 0.370335
vn 0.840193 -0.396141 0.370335
vn 0.840193 -0.396141 0.370335
vn 0.889913 0.347748 -0.295171
vn 0.889913 0.347748 -0.295171
vn 0.889913 0.347748 -0.295171
vn 0.889913 0.347748 -0.295171
vn -0.855280 -0.509229 0.095821
vn -0.855280 -0.509229 0.095821
vn -0.855280 -0.509229 0.095821
vn -0.855280 -0.509229 0.095821
vn -0.042786 -0.795515 0.604421
vn -0.042786 -0.795515 0.604421
vn -0.042786 -0.795515 0.604421
vn -0.042786 -0.795515 0.604421
vn -0.822349 0.306870 -0.479137
vn -0.822349 0.306870 -0.479137
vn -0.822349 0.306870 -0.479137
vn -0.822349 0.306870 -0.479137
vn 0.051627 0.740742 -0.669803
vn 0.051627 0.740742 -0.669803
vn 0.051627 0.740742 -0.669803
vn 0.051627 0.740742 -0.669803
vn 0.840268 -0.404475 0.361039
vn 0.840268 -0.404475 0.361039
vn 0.840268 -0.404475 0.361039
vn 0.840268 -0.404475 0.361039
vn -0.860179 -0.497564 0.111905
vn -0.860179 -0.497564 0.111905
vn -0.860179 -0.497564 0.111905
vn -0.860179 -0.497564 0.111905
vn -0.044364 -0.790502 0.610850
vn -0.044364 -0.790502 0.610850
vn -0.044364 -0.790502 0.610850
vn -0.044364 -0.790502 0.610850
vn -0.824904 0.312950 -0.470740
vn -0.824904 0.312950 -0.470740
vn -0.824904 0.312950 -0.470740
vn -0.824904 0.312950 -0.470740
vn 0.889952 0.334050 -0.310476
vn 0.889952 0.334050 -0.310476
vn 0.889952 0.334050 -0.310476
vn 0.889952 0.334050 -0.310476
vn 0.051506 0.734951 -0.676161
vn 0.051506 0.734951 -0.676161
vn 0.051506 0.734951 -0.676161
vn 0.051506 0.734951 -0.676161
vn -0.864797 -0.485478 0.128209
vn -0.864797 -0.485478 0.128209
vn -0.864797 -0.485478 0.128209
vn -0.864797 -0.485478 0.128209
vn -0.827207 0.318942 -0.462606
vn -0.827207 0.318942 -0.462606
vn -0.827207 0.318942 -0.462606
vn -0.827207 0.318942 -0.462606
vn 0.840115 -0.413388 0.351166
vn 0.840115 -0.413388 0.351166
vn 0.840115 -0.413388 0.351166
vn 0.840115 -0.413388 0.351166
vn -0.045674 -0.786270 0.616193
vn -0.045674 -0.786270 0.616193
vn -0.045674 -0.786270 0.616193
vn -0.045674 -0.786270 0.616193
vn -0.869151 -0.472816 0.144989
vn -0.869151 -0.472816 0.144989
vn -0.869151 -0.472816 0.144989
vn -0.869151 -0.472816 0.144989
vn 0.889565 0.320467 -0.325539
vn 0.889565 0.320467 -0.325539
vn 0.889565 0.320467 -0.325539
vn 0.889565 0.320467 -0.325539
vn 0.051207 0.729211 -0.682370
vn 0.051207 0.729211 -0.682370
vn 0.051207 0.729211 -0.682370
vn 0.051207 0.729211 -0.682370
vn -0.829458 0.325662 -0.453811
vn -0.829458 0.325662 -0.453811
vn -0.829458 0.325662 -0.453811
vn -0.829458 0.325662 -0.453811
vn -0.046989 -0.780763 0.623058
vn -0.046989 -0.780763 0.623058
vn -0.046989 -0.780763 0.623058
vn -0.046989 -0.780763 0.623058
vn 0.839691 -0.423076 0.340477
vn 0.839691 -0.423076 0.340477
vn 0.839691 -0.423076 0.340477
vn 0.839691 -0.423076 0.340477
vn -0.873054 -0.460115 0.161468
vn -0.873054 -0.460115 0.161468
vn -0.873054 -0.460115 0.161468
vn -0.873054 -0.460115 0.161468
vn 0.888747 0.306812 -0.340580
vn 0.888747 0.306812 -0.340580
vn 0.888747 0.306812 -0.340580
vn 0.888747 0.306812 -0.340580
vn -0.831655 0.333292 -0.444148
vn -0.831655 0.333292 -0.444148
vn -0.831655 0.333292 -0.444148
vn -0.831655 0.333292 -0.444148
vn 0.050696 0.724324 -0.687594
vn 0.050696 0.724324 -0.687594
vn 0.050696 0.724324 -0.687594
vn 0.050696 0.724324 -0.687594
vn -0.876525 -0.447411 0.177562
vn -0.876525 -0.447411 0.177562
vn -0.876525 -0.447411 0.177562
vn -0.876525 -0.447411 0.177562
vn -0.048105 -0.775272 0.629793
vn -0.048105 -0.775272 0.629793
vn -0.048105 -0.775272 0.629793
vn -0.048105 -0.775272 0.629793
vn 0.838923 -0.433683 0.328826
vn 0.838923 -0.433683 0.328826
vn 0.838923 -0.433683 0.328826
vn 0.838923 -0.433683 0.328826
vn -0.833798 0.342053 -0.433337
vn -0.833798 0.342053 -0.433337
vn -0.833798 0.342053 -0.433337
vn -0.833798 0.342053 -0.433337
vn -0.879610 -0.434579 0.193462
vn -0.879610 -0.434579 0.193462
vn -0.879610 -0.434579 0.193462
vn -0.879610 -0.434579 0.193462
vn 0.050019 0.720367 -0.691787
vn 0.050019 0.720367 -0.691787
vn 0.050019 0.720367 -0.691787
vn 0.050019 0.720367 -0.691787
vn 0.887459 0.292517 -0.356160
vn 0.887459 0.292517 -0.356160
vn 0.887459 0.292517 -0.356160
vn 0.887459 0.292517 -0.356160
vn -0.049008 -0.770572 0.635466
vn -0.049008 -0.770572 0.635466
vn -0.049008 -0.770572 0.635466
vn -0.049008 -0.770572 0.635466
vn 0.837867 -0.443727 0.317939
vn 0.837867 -0.443727 0.317939
vn 0.837867 -0.443727 0.317939
vn 0.837867 -0.443727 0.317939
vn -0.835546 0.350139 -0.423398
vn -0.835546 0.350139 -0.423398
vn -0.835546 0.350139 -0.423398
vn -0.835546 0.350139 -0.423398
vn -0.882320 -0.421476 0.209448
vn -0.882320 -0.421476 0.209448
vn -0.882320 -0.421476 0.209448
vn -0.882320 -0.421476 0.209448
vn 0.049228 0.717344 -0.694978
vn 0.049228 0.717344 -0.694978
vn 0.049228 0.717344 -0.694978
vn 0.049228 0.717344 -0.694978
vn -0.049763 -0.766712 0.640060
vn -0.049763 -0.766712 0.640060
vn -0.049763 -0.766712 0.640060
vn -0.049763 -0.766712 0.640060
vn 0.885755 0.278389 -0.371398
vn 0.885755 0.278389 -0.371398
vn 0.885755 0.278389 -0.371398
vn 0.885755 0.278389 -0.371398
vn -0.837018 0.358186 -0.413646
vn -0.837018 0.358186 -0.413646
vn -0.837018 0.358186 -0.413646
vn -0.837018 0.358186 -0.413646
vn -0.884688 -0.407721 0.226032
vn -0.884688 -0.407721 0.226032
vn -0.884688 -0.407721 0.226032
vn -0.884688 -0.407721 0.226032
vn 0.836523 -0.453647 0.307300
vn 0.836523 -0.453647 0.307300
vn 0.836523 -0.453647 0.307300
vn 0.836523 -0.453647 0.307300
vn 0.048285 0.713041 -0.699458
vn 0.048285 0.713041 -0.699458
vn 0.048285 0.713041 -0.699458
vn 0.048285 0.713041 -0.699458
vn -0.050424 -0.763744 0.643546
vn -0.050424 -0.763744 0.643546
vn -0.050424 -0.763744 0.643546
vn -0.050424 -0.763744 0.643546
vn 0.883672 0.264664 -0.386105
vn 0.883672 0.264664 -0.386105
vn 0.883672 0.264664 -0.386105
vn 0.883672 0.264664 -0.386105
vn -0.838268 0.366894 -0.403355
vn -0.838268 0.366894 -0.403355
vn -0.838268 0.366894 -0.403355
vn -0.838268 0.366894 -0.403355
vn -0.886590 -0.394030 0.242278
vn -0.886590 -0.394030 0.242278
vn -0.886590 -0.394030 0.242278
vn -0.886590 -0.394030 0.242278
vn 0.834827 -0.464026 0.296215
vn 0.834827 -0.464026 0.296215
vn 0.834827 -0.464026 0.296215
vn 0.834827 -0.464026 0.296215
vn -0.050933 -0.759487 0.648525
vn -0.050933 -0.759487 0.648525
vn -0.050933 -0.759487 0.648525
vn -0.050933 -0.759487 0.648525
vn 0.047219 0.708810 -0.703818
vn 0.047219 0.708810 -0.703818
vn 0.047219 0.708810 -0.703818
vn 0.047219 0.708810 -0.703818
vn -0.888051 -0.380511 0.258025
vn -0.888051 -0.380511 0.258025
vn -0.888051 -0.380511 0.258025
vn -0.888051 -0.380511 0.258025
vn -0.839272 0.376449 -0.392312
vn -0.839272 0.376449 -0.392312
vn -0.839272 0.376449 -0.392312
vn -0.839272 0.376449 -0.392312
vn 0.881203 0.251229 -0.400455
vn 0.881203 0.251229 -0.400455
vn 0.881203 0.251229 -0.400455
vn 0.881203 0.251229 -0.400455
vn 0.832713 -0.475048 0.284462
vn 0.832713 -0.475048 0.284462
vn 0.832713 -0.475048 0.284462
vn 0.832713 -0.475048 0.284462
vn -0.889103 -0.367032 0.273464
vn -0.889103 -0.367032 0.273464
vn -0.889103 -0.367032 0.273464
vn -0.889103 -0.367032 0.273464
vn -0.051292 -0.755266 0.653409
vn -0.051292 -0.755266 0.653409
vn -0.051292 -0.755266 0.653409
vn -0.051292 -0.755266 0.653409
vn -0.839999 0.387061 -0.380244
vn -0.839999 0.387061 -0.380244
vn -0.839999 0.387061 -0.380244
vn -0.839999 0.387061 -0.380244
vn 0.046127 0.705479 -0.707228
vn 0.046127 0.705479 -0.707228
vn 0.046127 0.705479 -0.707228
vn 0.046127 0.705479 -0.707228
vn 0.878334 0.237938 -0.414627
vn 0.878334 0.237938 -0.414627
vn 0.878334 0.237938 -0.414627
vn 0.878334 0.237938 -0.414627
vn -0.889737 -0.353478 0.288827
vn -0.889737 -0.353478 0.288827
vn -0.889737 -0.353478 0.288827
vn -0.889737 -0.353478 0.288827
vn -0.840390 0.397053 -0.368908
vn -0.840390 0.397053 -0.368908
vn -0.840390 0.397053 -0.368908
vn -0.840390 0.397053 -0.368908
vn -0.051611 -0.751876 0.657281
vn -0.051611 -0.751876 0.657281
vn -0.051611 -0.751876 0.657281
vn -0.051611 -0.751876 0.657281
vn 0.830085 -0.486889 0.271842
vn 0.830085 -0.486889 0.271842
vn 0.830085 -0.486889 0.271842
vn 0.830085 -0.486889 0.271842
vn 0.045062 0.703120 -0.709642
vn 0.045062 0.703120 -0.709642
vn 0.045062 0.703120 -0.709642
vn 0.045062 0.703120 -0.709642
vn -0.889929 -0.339184 0.304928
vn -0.889929 -0.339184 0.304928
vn -0.889929 -0.339184 0.304928
vn -0.889929 -0.339184 0.304928
vn 0.874884 0.223967 -0.429438
vn 0.874884 0.223967 -0.429438
vn 0.874884 0.223967 -0.429438
vn 0.874881 0.223976 -0.429439
vn 0.874881 0.223976 -0.429439
vn -0.840464 0.406943 -0.357794
vn -0.840464 0.406943 -0.357794
vn -0.840464 0.406943 -0.357794
vn -0.840464 0.406943 -0.357794
vn -0.051963 -0.749384 0.660094
vn -0.051963 -0.749384 0.660094
vn -0.051963 -0.749384 0.660094
vn -0.051963 -0.749384 0.660094
vn 0.827174 -0.498308 0.259753
vn 0.827174 -0.498308 0.259753
vn 0.827174 -0.498308 0.259753
vn 0.827174 -0.498308 0.259753
vn 0.044093 0.701820 -0.710989
vn 0.044093 0.701820 -0.710989
vn 0.044093 0.701820 -0.710989
vn 0.044093 0.701820 -0.710989
vn -0.889667 -0.325044 0.320684
vn -0.889667 -0.325044 0.320684
vn -0.889667 -0.325044 0.320684
vn -0.889667 -0.325044 0.320684
vn -0.840178 0.417360 -0.346282
vn -0.840178 0.417360 -0.346282
vn -0.840178 0.417360 -0.346282
vn -0.840178 0.417360 -0.346282
vn -0.052429 -0.747877 0.661764
vn -0.052429 -0.747877 0.661764
vn -0.052429 -0.747877 0.661764
vn -0.052429 -0.747877 0.661764
vn 0.871072 0.210246 -0.443881
vn 0.871072 0.210246 -0.443881
vn 0.871043 0.210181 -0.443969
vn 0.871043 0.210181 -0.443969
vn 0.042853 0.699348 -0.713496
vn 0.042853 0.699348 -0.713496
vn 0.042859 0.699411 -0.713434
vn 0.042859 0.699411 -0.713434
vn 0.042853 0.699348 -0.713496
vn 0.823976 -0.509459 0.248023
vn 0.823976 -0.509459 0.248023
vn 0.823976 -0.509459 0.248023
vn 0.823976 -0.509459 0.248023
vn -0.889005 -0.311247 0.335849
vn -0.889005 -0.311247 0.335849
vn -0.889005 -0.311247 0.335849
vn -0.889005 -0.311247 0.335849
vn -0.839483 0.428489 -0.334165
vn -0.839483 0.428489 -0.334165
vn -0.839483 0.428489 -0.334165
vn -0.839483 0.428489 -0.334165
vn 0.867002 0.197134 -0.457652
vn 0.867002 0.197134 -0.457652
vn 0.866918 0.196942 -0.457895
vn 0.866918 0.196942 -0.457895
vn -0.052616 -0.745217 0.664743
vn -0.052616 -0.745217 0.664743
vn -0.052616 -0.745217 0.664743
vn -0.052616 -0.745217 0.664743
vn -0.887963 -0.297670 0.350592
vn -0.887963 -0.297670 0.350592
vn -0.887963 -0.297670 0.350592
vn -0.887963 -0.297670 0.350592
vn 0.820346 -0.520899 0.236001
vn 0.820346 -0.520899 0.236001
vn 0.820346 -0.520899 0.236001
vn 0.820346 -0.520899 0.236001
vn -0.838315 0.440571 -0.321131
vn -0.838315 0.440571 -0.321131
vn -0.838315 0.440571 -0.321131
vn -0.838315 0.440571 -0.321131
vn 0.862678 0.184493 -0.470903
vn 0.862678 0.184493 -0.470903
vn 0.862501 0.184167 -0.471354
vn 0.862501 0.184167 -0.471354
vn 0.041584 0.695473 -0.717348
vn 0.041584 0.695473 -0.717348
vn 0.041515 0.696798 -0.716065
vn -0.052669 -0.742438 0.667841
vn -0.052669 -0.742438 0.667841
vn -0.052669 -0.742438 0.667841
vn -0.052669 -0.742438 0.667841
vn -0.886524 -0.284241 0.365079
vn -0.886524 -0.284241 0.365079
vn -0.886524 -0.284241 0.365079
vn -0.886524 -0.284241 0.365079
vn -0.836834 0.452200 -0.308584
vn -0.836834 0.452200 -0.308584
vn -0.836834 0.452200 -0.308584
vn -0.836834 0.452200 -0.308584
vn 0.816199 -0.532808 0.223460
vn 0.816199 -0.532808 0.223460
vn 0.816199 -0.532808 0.223460
vn 0.816199 -0.532808 0.223460
vn 0.858035 0.172113 -0.483893
vn 0.858035 0.172113 -0.483893
vn 0.857774 0.171741 -0.484488
vn -0.884522 -0.270033 0.380397
vn -0.884522 -0.270033 0.380397
vn -0.884522 -0.270033 0.380397
vn -0.884522 -0.270033 0.380397
vn -0.052855 -0.740487 0.669989
vn -0.052855 -0.740487 0.669989
vn -0.052855 -0.740487 0.669989
vn -0.052855 -0.740487 0.669989
vn 0.811419 -0.545371 0.210165
vn 0.811419 -0.545371 0.210165
vn 0.811413 -0.545376 0.210179
vn 0.811413 -0.545376 0.210179
vn 0.811413 -0.545376 0.210179
vn -0.835028 0.463561 -0.296376
vn -0.835028 0.463561 -0.296376
vn -0.835029 0.463566 -0.296366
vn -0.835029 0.463566 -0.296366
vn -0.835028 0.463561 -0.296376
vn -0.882088 -0.255978 0.395470
vn -0.882088 -0.255978 0.395470
vn -0.882088 -0.255978 0.395470
vn -0.882088 -0.255978 0.395470
vn -0.053262 -0.739425 0.671129
vn -0.053262 -0.739425 0.671129
vn -0.053262 -0.739425 0.671129
vn -0.053262 -0.739425 0.671129
vn -0.832769 0.475279 -0.283911
vn -0.832789 0.475140 -0.284085
vn -0.832789 0.475140 -0.284085
vn -0.832769 0.475279 -0.283911
vn 0.806230 -0.557857 0.196948
vn 0.806230 -0.557857 0.196948
vn 0.806266 -0.557749 0.197105
vn 0.806266 -0.557749 0.197105
vn -0.879340 -0.242438 0.409860
vn -0.879340 -0.242438 0.409860
vn -0.879340 -0.242438 0.409860
vn -0.879340 -0.242438 0.409860
vn -0.054002 -0.739392 0.671106
vn -0.054002 -0.739392 0.671106
vn -0.054002 -0.739392 0.671106
vn -0.054002 -0.739392 0.671106
vn -0.829988 0.487524 -0.270998
vn -0.830047 0.487245 -0.271318
vn -0.830047 0.487245 -0.271318
vn -0.829988 0.487524 -0.270998
vn -0.876290 -0.229286 0.423727
vn -0.876290 -0.229286 0.423727
vn -0.876290 -0.229286 0.423727
vn -0.876290 -0.229286 0.423727
vn 0.800801 -0.569893 0.184230
vn 0.800801 -0.569893 0.184230
vn 0.800888 -0.569675 0.184524
vn 0.800888 -0.569675 0.184524
vn -0.054448 -0.738537 0.672011
vn -0.054448 -0.738537 0.672011
vn -0.054448 -0.738537 0.672011
vn -0.054448 -0.738537 0.672011
vn -0.826585 0.500545 -0.257317
vn -0.826690 0.500117 -0.257810
vn -0.826690 0.500117 -0.257810
vn -0.826585 0.500545 -0.257317
vn -0.872932 -0.216491 0.437173
vn -0.872932 -0.216491 0.437173
vn -0.872932 -0.216491 0.437173
vn -0.872932 -0.216491 0.437173
vn -0.054679 -0.737255 0.673398
vn -0.054679 -0.737255 0.673398
vn -0.054679 -0.737255 0.673398
vn -0.054679 -0.737255 0.673398
vn 0.794932 -0.581986 0.171391
vn 0.794932 -0.581986 0.171391
vn 0.795056 -0.581692 0.171814
vn 0.795056 -0.581692 0.171814
vn -0.868922 -0.203025 0.451392
vn -0.868922 -0.203025 0.451392
vn -0.868922 -0.203025 0.451392
vn -0.868922 -0.203025 0.451392
vn -0.822805 0.513384 -0.243781
vn -0.822954 0.512784 -0.244538
vn -0.822954 0.512784 -0.244538
vn -0.822805 0.513384 -0.243781
vn -0.864446 -0.189566 0.465616
vn -0.864446 -0.189566 0.465616
vn -0.864446 -0.189566 0.465616
vn -0.864424 -0.189532 0.465670
vn -0.864424 -0.189532 0.465670
vn -0.055190 -0.736724 0.673937
vn -0.055190 -0.736724 0.673937
vn -0.055190 -0.736724 0.673937
vn -0.055190 -0.736724 0.673937
vn 0.788539 -0.594289 0.158202
vn 0.788539 -0.594289 0.158202
vn 0.788666 -0.593976 0.158743
vn -0.818932 0.525095 -0.231571
vn -0.818932 0.525095 -0.231571
vn -0.818750 0.525754 -0.230717
vn -0.056060 -0.737051 0.673508
vn -0.056060 -0.737051 0.673508
vn -0.056093 -0.737026 0.673532
vn -0.056093 -0.737026 0.673532
vn -0.056093 -0.737026 0.673532
vn 0.000005 0.000000 -1.000000
vn 0.000005 0.000000 -1.000000
vn 0.000005 0.000000 -1.000000
vn 0.000005 0.000000 -1.000000
vn 0.000005 0.000000 -1.000000
vn 0.000002 -0.000000 -1.000000
vn 0.000000 -0.000000 -1.000000
vn 0.000005 0.000000 -1.000000
vn 0.000005 0.000000 -1.000000
vn 0.000003 -0.000000 -1.000000
vn 0.000002 -0.000000 -1.000000
vn 0.000005 0.000000 -1.000000
vn 0.000005 0.000000 -1.000000
vn 0.000005 0.000000 -1.000000
vn -0.859778 -0.176753 0.479104
vn -0.859671 -0.176564 0.479365
vn -0.859671 -0.176564 0.479365
vn -0.859778 -0.176753 0.479104
vn -0.854935 -0.164485 0.491966
vn -0.854698 -0.164091 0.492509
vn -0.854699 -0.164091 0.492509
vn -0.854935 -0.164485 0.491966
vn -0.057659 -0.739349 0.670850
vn -0.057659 -0.739349 0.670850
vn -0.057507 -0.738248 0.672074
vn -0.849445 -0.152156 0.505264
vn -0.849445 -0.152156 0.505264
vn -0.849910 -0.152701 0.504316
vn -0.878769 -0.109301 -0.464562
vn -0.878769 -0.109301 -0.464562
vn -0.878769 -0.109301 -0.464562
vn -0.878769 -0.109301 -0.464562
vn 0.878770 0.109300 0.464562
vn 0.878770 0.109300 0.464562
vn 0.878770 0.109300 0.464561
vn 0.878770 0.109300 0.464562
vn 0.000000 -0.000000 -1.000000
vn 0.000000 -0.000000 -1.000000
vn 0.000000 -0.000000 -1.000000
vn 0.000000 -0.000000 -1.000000
vn 0.000000 -0.000000 -1.000000
vn 0.000000 -0.000000 -1.000000
vn 0.000000 -0.000000 -1.000000
vn 0.000000 -0.000000 -1.000000
vn 0.000000 -0.000000 -1.000000
vn 0.000000 -0.000000 -1.000000
vn 0.000000 -0.000000 -1.000000
vn 0.000000 -0.000000 -1.000000
vn 0.000000 -0.000000 -1.000000
vn 0.000000 -0.000000 -1.000000
vn 0.000000 -0.000000 -1.000000
vn 0.000000 -0.000000 -1.000000
vn -0.271513 -0.642504 -0.716568
vn -0.271513 -0.642504 -0.716568
vn -0.271513 -0.642504 -0.716568
vn -0.271513 -0.642504 -0.716568
vn 0.180597 -0.977193 -0.111709
vn 0.180597 -0.977193 -0.111709
vn 0.180597 -0.977193 -0.111709
vn 0.180597 -0.977193 -0.111709
vn 0.180597 -0.977193 -0.111709
vn -0.180598 0.977193 0.111709
vn -0.180598 0.977193 0.111709
vn -0.180598 0.977193 0.111709
vn -0.180598 0.977193 0.111709
vn -0.180598 0.977193 0.111709
vn 0.000001 0.744536 -0.667582
vn 0.000001 0.744536 -0.667582
vn 0.000001 0.744536 -0.667582
vn 0.000001 0.744536 -0.667582
vn 0.000001 0.744536 -0.667582
vn 0.000000 -0.744536 0.667582
vn 0.000000 -0.744536 0.667582
vn 0.000000 -0.744536 0.667582
vn 0.000000 -0.744536 0.667582
vn 0.000000 -0.744536 0.667582
vn 0.962435 -0.181255 -0.202150
vn 0.962435 -0.181255 -0.202150
vn 0.962435 -0.181255 -0.202150
vn 0.962435 -0.181255 -0.202150
vn -0.962435 0.181256 0.202150
vn -0.962435 0.181256 0.202150
vn -0.962435 0.181256 0.202150
vn -0.962435 0.181256 0.202151
s off
g polySurface14 TENTACULE_SEPARATE
usemtl initialShadingGroup
f 3//1 1//2 2//3 5//4
f 4//5 3//6 5//7
f 6//8 2//9 1//10 7//11 8//12
f 6//13 8//14 9//15 11//16
f 11//17 9//18 10//19 14//20
f 14//21 10//22 13//23 18//24
f 18//25 13//26 17//27 20//28
f 20//29 17//30 19//31 23//32
f 23//33 19//34 22//35 25//36
f 25//37 22//38 24//39 28//40
f 26//41 8//42 7//43 15//44 45//45
f 28//46 24//47 27//48 31//49
f 29//50 9//51 8//52 26//53
f 31//54 27//55 30//56 38//57
f 32//58 10//59 9//60 29//61
f 35//62 44//63 16//64 4//65 5//66
f 36//67 13//68 10//69 32//70
f 38//71 30//72 37//73 41//74
f 35//75 5//76 2//77 42//78
f 39//79 17//80 13//81 36//82
f 41//83 37//84 40//85 47//86
f 42//87 2//88 6//89 48//90
f 43//91 19//92 17//93 39//94
f 21//95 16//96 44//97 61//98
f 45//99 15//100 34//101 73//102
f 47//103 40//104 46//105 53//106
f 48//107 6//108 11//109 50//110
f 49//111 22//112 19//113 43//114
f 50//115 11//116 14//117 54//118
f 51//119 24//120 22//121 49//122
f 53//123 46//124 52//125 58//126
f 54//127 14//128 18//129 59//130
f 55//131 27//132 24//133 51//134
f 58//135 52//136 57//137 65//138
f 59//139 18//140 20//141 63//142
f 60//143 30//144 27//145 55//146
f 62//147 21//148 61//149 78//150
f 63//151 20//152 23//153 68//154
f 65//155 57//156 64//157 71//158
f 67//159 37//160 30//161 60//162
f 68//163 23//164 25//165 72//166
f 69//167 40//168 37//169 67//170
f 71//171 64//172 70//173 76//174
f 72//175 25//176 28//177 77//178
f 73//179 34//180 66//181 87//182
f 74//183 46//184 40//185 69//186
f 76//187 70//188 75//189 84//190
f 77//191 28//192 31//193 82//194
f 79//195 62//196 78//197 98//198
f 80//199 52//200 46//201 74//202
f 82//203 31//204 38//205 86//206
f 84//207 75//208 83//209 90//210
f 85//211 57//212 52//213 80//214
f 86//215 38//216 41//217 92//218
f 87//219 66//220 81//221
f 90//222 83//223 89//224 100//225
f 91//226 64//227 57//228 85//229
f 92//230 41//231 47//232 102//233
f 93//234 70//235 64//236 91//237
f 95/2/238 96/3/239 94/1/240 135/4/241
f 97//242 79//243 98//244
f 100//245 89//246 99//247 107//248
s 1
f 114//249 104//250 88//251 81//252 66//253 34//254 15//255 7//256 1//257 3//258 4//259 16//260 21//261 62//262 79//263 97//264 101//265 56//266 12//267 33//268 119//269
s off
f 102//270 47//271 53//272 105//273
f 103//274 75//275 70//276 93//277
f 105//278 53//279 58//280 109//281
f 107//282 99//283 106//284 111//285
f 108//286 83//287 75//288 103//289
f 109//290 58//291 65//292 113//293
f 111//294 106//295 110//296 116//297
f 112//298 89//299 83//300 108//301
f 113//302 65//303 71//304 118//305
f 116//306 110//307 115//308 122//309
f 117//310 99//311 89//312 112//313
f 118//314 71//315 76//316 123//317
f 122//318 115//319 121//320 131//321
f 123//322 76//323 84//324 128//325
f 124//326 106//327 99//328 117//329
f 125//330 87//331 81//332 88//333 147//334
f 127//335 73//336 87//337 125//338
f 128//339 84//340 90//341 134//342
f 129//343 110//344 106//345 124//346
f 131//347 121//348 130//349 139//350
f 132//351 45//352 73//353 127//354
f 133//355 26//356 45//357 132//358
f 134//359 90//360 100//361 143//362
f 136//363 29//364 26//365 133//366
f 137//367 115//368 110//369 129//370
f 139//371 130//372 138//373 150//374
f 140//375 32//376 29//377 136//378
f 101//379 97//380 98//381 141//382 160//383
f 141//384 98//385 78//386 145//387
f 142//388 36//389 32//390 140//391
f 143//392 100//393 107//394 152//395
f 144//396 121//397 115//398 137//399
f 145//400 78//401 61//402 148//403
f 146//404 39//405 36//406 142//407
f 147//408 88//409 104//410 170//411
f 148//412 61//413 44//414 153//415
f 150//416 138//417 149//418 163//419
f 151//420 43//421 39//422 146//423
f 152//424 107//425 111//426 164//427
f 153//428 44//429 35//430 156//431
f 154//432 49//433 43//434 151//435
f 155//436 130//437 121//438 144//439
f 156//440 35//441 42//442 161//443
f 158//444 51//445 49//446 154//447
f 120//448 101//449 160//450 193//451
f 161//452 42//453 48//454 168//455
f 163//456 149//457 162//458 175//459
f 164//460 111//461 116//462 172//463
f 165//464 55//465 51//466 158//467
f 167//468 138//469 130//470 155//471
f 168//472 48//473 50//474 171//475
f 169//476 60//477 55//478 165//479
f 170//480 104//481 114//482 187//483
f 171//484 50//485 54//486 176//487
f 172//488 116//489 122//490 182//491
f 173//492 67//493 60//494 169//495
f 175//496 162//497 174//498 185//499
f 176//500 54//501 59//502 180//503
s 1
f 201//504 195//505 177//506 166//507 114//249 119//269 159//508 126//509 56//266 101//265 120//510 157//511 194//512
s off
f 178//513 149//514 138//515 167//516
f 179//517 69//518 67//519 173//520
f 180//521 59//522 63//523 183//524
f 181//525 74//526 69//527 179//528
f 182//529 122//530 131//531 191//532
f 183//533 63//534 68//535 189//536
f 185//537 174//538 184//539 200//540
f 186//541 80//542 74//543 181//544
f 187//545 114//546 166//547 205//548
f 188//549 162//550 149//551 178//552
f 189//553 68//554 72//555 192//556
f 190//557 85//558 80//559 186//560
f 191//561 131//562 139//563 202//564
f 192//565 72//566 77//567 197//568
f 157//569 120//570 193//571 216//572
f 196//573 91//574 85//575 190//576
f 197//577 77//578 82//579 203//580
f 198//581 174//582 162//583 188//584
f 200//585 184//586 199//587 210//588
f 202//589 139//590 150//591 211//592
f 203//593 82//594 86//595 206//596
f 204//597 93//598 91//599 196//600
f 205//601 166//602 177//603 214//604
f 206//605 86//606 92//607 212//608
f 207//609 103//610 93//611 204//612
f 208//613 184//614 174//615 198//616
f 210//617 199//618 209//619 221//620
f 211//621 150//622 163//623 219//624
f 212//625 92//626 102//627 215//628
f 213//629 108//630 103//631 207//632
f 214//633 177//634 195//635
f 215//636 102//637 105//638 222//639
f 194//640 157//641 216//642
f 193//643 214//644 195//645 201//646 216//647
f 217//648 112//649 108//650 213//651
f 218//652 199//653 184//654 208//655
f 160//656 205//657 214//658 193//659
f 219//660 163//661 175//662 227//663
f 221//664 209//665 220//666 230//667
f 222//668 105//669 109//670 224//671
f 141//672 187//673 205//674 160//675
f 216//676 201//677 194//678
f 223//679 117//680 112//681 217//682
f 145//683 170//684 187//685 141//686
f 224//687 109//688 113//689 228//690
f 148//691 147//692 170//693 145//694
f 225//695 209//696 199//697 218//698
f 153//699 125//700 147//701 148//702
f 226//703 124//704 117//705 223//706
f 227//707 175//708 185//709 234//710
f 156//711 127//712 125//713 153//714
f 228//715 113//716 118//717 232//718
f 230//719 220//720 229//721 238//722
f 161//723 132//724 127//725 156//726
f 231//727 129//728 124//729 226//730
f 168//731 133//732 132//733 161//734
f 232//735 118//736 123//737 236//738
f 171//739 136//740 133//741 168//742
f 233//743 220//744 209//745 225//746
f 234//747 185//748 200//749 242//750
f 176//751 140//752 136//753 171//754
f 235//755 137//756 129//757 231//758
f 236//759 123//760 128//761 239//762
f 180//763 142//764 140//765 176//766
f 238//767 229//768 237//769 246//770
f 183//771 146//772 142//773 180//774
f 239//775 128//776 134//777 243//778
f 240//779 144//780 137//781 235//782
f 189//783 151//784 146//785 183//786
f 241//787 229//788 220//789 233//790
f 242//791 200//792 210//793 248//794
f 192//795 154//796 151//797 189//798
f 243//799 134//800 143//801 247//802
f 244//803 155//804 144//805 240//806
f 197//807 158//808 154//809 192//810
f 246//811 237//812 245//813 253//814
f 203//815 165//816 158//817 197//818
f 247//819 143//820 152//821 251//822
f 248//823 210//824 221//825 255//826
f 249//827 237//828 229//829 241//830
f 206//831 169//832 165//833 203//834
f 250//835 167//836 155//837 244//838
f 212//839 173//840 169//841 206//842
f 251//843 152//844 164//845 257//846
f 215//847 179//848 173//849 212//850
f 253//851 245//852 252//853 261//854
f 254//855 178//856 167//857 250//858
f 255//859 221//860 230//861 262//862
f 222//863 181//864 179//865 215//866
f 256//867 245//868 237//869 249//870
f 257//871 164//872 172//873 259//874
f 224//875 186//876 181//877 222//878
f 258//879 188//880 178//881 254//882
f 259//883 172//884 182//885 265//886
f 228//887 190//888 186//889 224//890
f 261//891 252//892 260//893 270//894
f 262//895 230//896 238//897 268//898
f 232//899 196//900 190//901 228//902
f 263//903 198//904 188//905 258//906
f 264//907 252//908 245//909 256//910
f 265//911 182//912 191//913 267//914
f 236//915 204//916 196//917 232//918
f 266//919 208//920 198//921 263//922
f 239//923 207//924 204//925 236//926
f 267//927 191//928 202//929 273//930
f 268//931 238//932 246//933 274//934
f 270//935 260//936 269//937 276//938
f 271//939 260//940 252//941 264//942
f 243//943 213//944 207//945 239//946
f 272//947 218//948 208//949 266//950
f 273//951 202//952 211//953 277//954
f 247//955 217//956 213//957 243//958
f 274//959 246//960 253//961 281//962
f 251//963 223//964 217//965 247//966
f 276//967 269//968 275//969 283//970
f 277//971 211//972 219//973 280//974
f 278//975 225//976 218//977 272//978
f 279//979 269//980 260//981 271//982
f 257//983 226//984 223//985 251//986
f 280//987 219//988 227//989 286//990
f 281//991 253//992 261//993 288//994
f 259//995 231//996 226//997 257//998
f 282//999 233//1000 225//1001 278//1002
f 283//1003 275//1004 284//1005 290//1006
f 285//1007 275//1008 269//1009 279//1010
f 265//1011 235//1012 231//1013 259//1014
f 286//1015 227//1016 234//1017 289//1018
f 287//1019 241//1020 233//1021 282//1022
f 267//1023 240//1024 235//1025 265//1026
f 288//1027 261//1028 270//1029 294//1030
f 289//1031 234//1032 242//1033 295//1034
f 273//1035 244//1036 240//1037 267//1038
f 290//1039 284//1040 291//1041 298//1042
f 292//1043 284//1044 275//1045 285//1046
f 293//1047 249//1048 241//1049 287//1050
f 277//1051 250//1052 244//1053 273//1054
f 294//1055 270//1056 276//1057 301//1058
f 295//1059 242//1060 248//1061 300//1062
f 296//1063 256//1064 249//1065 293//1066
f 280//1067 254//1068 250//1069 277//1070
f 297//1071 291//1072 284//1073 292//1074
f 298//1075 291//1076 299//1077 305//1078
f 300//1079 248//1080 255//1081 303//1082
f 301//1083 276//1084 283//1085 308//1086
f 286//1087 258//1088 254//1089 280//1090
f 302//1091 264//1092 256//1093 296//1094
f 303//1095 255//1096 262//1097 309//1098
f 289//1099 263//1100 258//1101 286//1102
f 304//1103 299//1104 291//1105 297//1106
f 305//1107 299//1108 306//1109 311//1110
f 307//1111 271//1112 264//1113 302//1114
f 308//1115 283//1116 290//1117 315//1118
f 295//1119 266//1120 263//1121 289//1122
f 309//1123 262//1124 268//1125 313//1126
f 300//1127 272//1128 266//1129 295//1130
f 310//1131 306//1132 299//1133 304//1134
f 312//1135 279//1136 271//1137 307//1138
f 313//1139 268//1140 274//1141 316//1142
f 311//1143 306//1144 314//1145 319//1146
f 315//1147 290//1148 298//1149 321//1150
f 303//1151 278//1152 272//1153 300//1154
f 316//1155 274//1156 281//1157 322//1158
f 317//1159 285//1160 279//1161 312//1162
f 318//1163 314//1164 306//1165 310//1166
f 309//1167 282//1168 278//1169 303//1170
f 319//1171 314//1172 320//1173 326//1174
f 321//1175 298//1176 305//1177 325//1178
f 322//1179 281//1180 288//1181 327//1182
f 313//1183 287//1184 282//1185 309//1186
f 323//1187 292//1188 285//1189 317//1190
f 324//1191 320//1192 314//1193 318//1194
f 325//1195 305//1196 311//1197 332//1198
f 316//1199 293//1200 287//1201 313//1202
f 327//1203 288//1204 294//1205 330//1206
f 326//1207 320//1208 328//1209 333//1210
f 329//1211 297//1212 292//1213 323//1214
f 322//1215 296//1216 293//1217 316//1218
f 330//1219 294//1220 301//1221 336//1222
f 331//1223 328//1224 320//1225 324//1226
f 332//1227 311//1228 319//1229 337//1230
f 334//1231 304//1232 297//1233 329//1234
f 333//1235 328//1236 335//1237 340//1238
f 327//1239 302//1240 296//1241 322//1242
f 336//1243 301//1244 308//1245 342//1246
f 330//1247 307//1248 302//1249 327//1250
f 337//1251 319//1252 326//1253 344//1254
f 338//1255 310//1256 304//1257 334//1258
f 339//1259 335//1260 328//1261 331//1262
f 340//1263 335//1264 341//1265 347//1266
f 342//1267 308//1268 315//1269 346//1270
f 336//1271 312//1272 307//1273 330//1274
f 343//1275 318//1276 310//1277 338//1278
f 344//1279 326//1280 333//1281 351//1282
f 345//1283 341//1284 335//1285 339//1286
f 346//1287 315//1288 321//1289 350//1290
f 342//1291 317//1292 312//1293 336//1294
f 347//1295 341//1296 348//1297 353//1298
f 349//1299 324//1300 318//1301 343//1302
f 346//1303 323//1304 317//1305 342//1306
f 350//1307 321//1308 325//1309 356//1310
f 351//1311 333//1312 340//1313 357//1314
f 352//1315 348//1316 341//1317 345//1318
f 353//1319 348//1320 354//1321 359//1322
f 350//1323 329//1324 323//1325 346//1326
f 355//1327 331//1328 324//1329 349//1330
f 356//1331 325//1332 332//1333 361//1334
f 357//1335 340//1336 347//1337 363//1338
f 358//1339 354//1340 348//1341 352//1342
f 356//1343 334//1344 329//1345 350//1346
f 360//1347 339//1348 331//1349 355//1350
f 361//1351 332//1352 337//1353 364//1354
f 359//1355 354//1356 362//1357 367//1358
f 363//1359 347//1360 353//1361 369//1362
f 361//1363 338//1364 334//1365 356//1366
f 364//1367 337//1368 344//1369 370//1370
f 365//1371 362//1372 354//1373 358//1374
f 366//1375 345//1376 339//1377 360//1378
f 364//1379 343//1380 338//1381 361//1382
f 367//1383 362//1384 368//1385 373//1386
f 369//1387 353//1388 359//1389 376//1390
f 370//1391 344//1392 351//1393 375//1394
f 371//1395 352//1396 345//1397 366//1398
f 372//1399 368//1400 362//1401 365//1402
f 370//1403 349//1404 343//1405 364//1406
f 373//1407 368//1408 374//1409 379//1410
f 375//1411 351//1412 357//1413 380//1414
f 376//1415 359//1416 367//1417 381//1418
f 375//1419 355//1420 349//1421 370//1422
f 377//1423 358//1424 352//1425 371//1426
f 378//1427 374//1428 368//1429 372//1430
f 380//1431 357//1432 363//1433 385//1434
f 380//1435 360//1436 355//1437 375//1438
f 381//1439 367//1440 373//1441 387//1442
f 379//1443 374//1444 382//1445 386//1446
f 383//1447 365//1448 358//1449 377//1450
f 384//1451 382//1452 374//1453 378//1454
f 385//1455 363//1456 369//1457 390//1458
f 385//1459 366//1460 360//1461 380//1462
f 387//1463 373//1464 379//1465 393//1466
f 388//1467 372//1468 365//1469 383//1470
f 386//1471 382//1472 389//1473 392//1474
f 390//1475 369//1476 376//1477 396//1478
f 390//1479 371//1480 366//1481 385//1482
f 391//1483 389//1484 382//1485 384//1486
f 393//1487 379//1488 386//1489 400//1490
f 394//1491 378//1492 372//1493 388//1494
f 392//1495 389//1496 395//1497 399//1498
f 396//1499 376//1500 381//1501 401//1502
f 396//1503 377//1504 371//1505 390//1506
f 397//1507 395//1508 389//1509 391//1510
f 398//1511 384//1512 378//1513 394//1514
f 400//1515 386//1516 392//1517 406//1518
f 401//1519 383//1520 377//1521 396//1522
f 401//1523 381//1524 387//1525 404//1526
f 399//1527 395//1528 402//1529 407//1530
f 403//1531 402//1532 395//1533 397//1534
f 404//1535 388//1536 383//1537 401//1538
f 405//1539 391//1540 384//1541 398//1542
f 404//1543 387//1544 393//1545 409//1546
f 406//1547 392//1548 399//1549 412//1550
f 407//1551 402//1552 408//1553 413//1554
f 409//1555 394//1556 388//1557 404//1558
f 409//1559 393//1560 400//1561 414//1562
f 410//1563 397//1564 391//1565 405//1566
f 411//1567 408//1568 402//1569 403//1570
f 412//1571 399//1572 407//1573 418//1574
f 414//1575 398//1576 394//1577 409//1578
f 413//1579 408//1580 415//1581 419//1582 421//1583
f 414//1584 400//1585 406//1586 420//1587
f 416//1588 403//1589 397//1590 410//1591
f 417//1592 415//1593 408//1594 411//1595
f 418//1596 407//1597 413//1598 426//1599
f 420//1600 405//1601 398//1602 414//1603
f 420//1604 406//1605 412//1606 428//1607
f 422//1608 411//1609 403//1610 416//1611
f 423//1612 419//1613 415//1614 424//1615
f 426//1616 413//1617 421//1618 425//1619 434//1620
f 427//1621 424//1622 415//1623 417//1624
f 428//1625 410//1626 405//1627 420//1628
f 428//1629 412//1630 418//1631 432//1632
f 429//1633 423//1634 424//1635 431//1636
f 430//1637 417//1638 411//1639 422//1640
f 432//1641 416//1642 410//1643 428//1644
f 433//1645 431//1646 424//1647 427//1648
f 432//1649 418//1650 426//1651 439//1652
f 436//1653 429//1654 431//1655 440//1656
f 425//1657 437//1658 434//1659
f 438//1660 427//1661 417//1662 430//1663
f 439//1664 422//1665 416//1666 432//1667
f 439//1668 426//1669 434//1670 444//1671
f 442//1672 440//1673 431//1674 433//1675
f 443//1676 436//1677 440//1678
f 444//1679 430//1680 422//1681 439//1682
f 445//1683 433//1684 427//1685 438//1686
f 446//1687 443//1688 440//1689 442//1690 449//1691
f 444//1692 434//1693 437//1694 435//1695 447//1696
f 447//1697 438//1698 430//1699 444//1700
f 448//1701 442//1702 433//1703 445//1704
f 447//1705 435//1706 441//1707 452//1708
f 451//1709 446//1710 449//1711 454//1712
f 452//1713 445//1714 438//1715 447//1716
f 453//1717 449//1718 442//1719 448//1720
f 452//1721 441//1722 450//1723 455//1724
f 445//1725 452//1726 455//1727 448//1728
f 456//1729 451//1730 454//1731 458//1732
f 457//1733 454//1734 449//1735 453//1736
f 455//1737 450//1738 459//1739 460//1740
f 448//1741 455//1742 460//1743 453//1744
f 461//1745 458//1746 454//1747 457//1748
f 462//1749 456//1750 458//1751 465//1752
f 453//1753 460//1754 463//1755 457//1756
f 460//1757 459//1758 464//1759 463//1760
f 461//1761 457//1762 463//1763 468//1764 469//1765
f 466//1766 465//1767 458//1768 461//1769
f 467//1770 462//1771 465//1772
f 464//1773 468//1774 463//1775
f 472//1776 467//1777 465//1778 466//1779 473//1780
s 2
f 471//1781 470//1782 469//1783 468//1784 464//1785 459//1786 475//1787 476//1788 484//1789 477//1790 462//1791 467//1792 472//1793 474//1794
s off
f 461//1795 469//1796 470//1797 466//1798
f 466//1799 470//1800 471//1801 473//1802
f 474//1803 472//1804 473//1805
f 471//1806 474//1807 473//1808
f 33/5/1809 12/6/1810 96/7/1811 95/8/1812
f 135/9/1813 94/10/1814 126/11/1815 159/12/1816
s 2
f 475//1787 459//1786 450//1817 441//1818 435//1819 437//1820 425//1821 421//1822 419//1823 423//1824 429//1825 436//1826 443//1827 446//1828 451//1829 456//1830 462//1791 477//1790 482//1831 483//1832
s off
f 478/13/1833 479/14/1834 480/15/1835 481/16/1836
f 12/17/1837 56/18/1838 126/19/1839 94/1/1840 96/3/1841
f 135/4/1842 159/20/1843 119/21/1844 33/22/1845 95/2/1846
f 483/23/1847 479/14/1848 478/13/1849 476/24/1850 475/25/1851
f 481/16/1852 480/15/1853 482/26/1854 477/27/1855 484/28/1856
f 482/29/1857 480/30/1858 479/31/1859 483/32/1860
f 481/33/1861 484/34/1862 476/35/1863 478/36/1864
