# WaveFront *.obj file (generated by Autodesk ATF)

mtllib 5a249a47-c72a-40c0-8798-1a4fe63a81e8.mtl

g Body1

v 1.500000 6.000000 3.618034
v 1.815175 6.000000 3.834546
v 2.174852 6.000000 3.964336
v 2.555658 6.000000 3.998967
v 2.932847 6.000000 3.936191
v 3.281909 6.000000 3.780086
v 3.580159 6.000000 3.540796
v 3.808217 6.000000 3.233872
v 3.951262 6.000000 2.879259
v 4.000000 6.000000 2.500000
v 3.951262 6.000000 2.120741
v 3.808217 6.000000 1.766128
v 3.580159 6.000000 1.459204
v 3.281909 6.000000 1.219914
v 2.932847 6.000000 1.063809
v 2.555658 6.000000 1.001033
v 2.174852 6.000000 1.035665
v 1.815175 6.000000 1.165454
v 1.500000 6.000000 1.381966
v 1.287429 5.988667 1.617116
v 1.132717 5.965953 1.883661
v 1.032731 5.944696 2.189071
v 1.000000 5.936492 2.500000
v 1.032731 5.944696 2.810929
v 1.132717 5.965953 3.116339
v 1.287429 5.988667 3.382884
v 1.500000 0.000000 1.381966
v 1.815175 0.000000 1.165454
v 2.174852 0.000000 1.035665
v 2.555658 0.000000 1.001033
v 2.932847 0.000000 1.063809
v 3.281909 0.000000 1.219914
v 3.580159 0.000000 1.459204
v 3.808217 0.000000 1.766128
v 3.951262 0.000000 2.120741
v 4.000000 0.000000 2.500000
v 3.951262 0.000000 2.879259
v 3.808217 0.000000 3.233872
v 3.580159 0.000000 3.540796
v 3.281909 0.000000 3.780086
v 2.932847 0.000000 3.936191
v 2.555658 0.000000 3.998967
v 2.174852 0.000000 3.964336
v 1.815175 0.000000 3.834546
v 1.500000 0.000000 3.618034
v 1.287429 0.011333 3.382884
v 1.132717 0.034047 3.116339
v 1.032731 0.055304 2.810929
v 1.000000 0.063508 2.500000
v 1.032731 0.055304 2.189071
v 1.132717 0.034047 1.883661
v 1.287429 0.011333 1.617116
v 1.500000 6.000000 0.000000
v 1.109819 5.961571 0.000000
v 0.734633 5.847759 0.000000
v 0.388860 5.662939 0.000000
v 0.085786 5.414214 0.000000
v -0.162939 5.111141 0.000000
v -0.347759 4.765367 0.000000
v -0.461571 4.390181 0.000000
v -0.500000 4.000000 0.000000
v -0.500000 4.000000 5.000000
v -0.461571 4.390181 5.000000
v -0.347759 4.765367 5.000000
v -0.162939 5.111141 5.000000
v 0.085786 5.414214 5.000000
v 0.388860 5.662939 5.000000
v 0.734633 5.847759 5.000000
v 1.109819 5.961571 5.000000
v 1.500000 6.000000 5.000000
v 1.500000 0.000000 5.000000
v 1.109819 0.038429 5.000000
v 0.734633 0.152241 5.000000
v 0.388860 0.337061 5.000000
v 0.085786 0.585786 5.000000
v -0.162939 0.888860 5.000000
v -0.347759 1.234633 5.000000
v -0.461571 1.609819 5.000000
v -0.500000 2.000000 5.000000
v -0.500000 2.000000 0.000000
v -0.461571 1.609819 0.000000
v -0.347759 1.234633 0.000000
v -0.162939 0.888860 0.000000
v 0.085786 0.585786 0.000000
v 0.388860 0.337061 0.000000
v 0.734633 0.152241 0.000000
v 1.109819 0.038429 0.000000
v 1.500000 0.000000 0.000000
v 4.500000 3.000000 5.000000
v 4.547125 2.626965 5.000000
v 4.685540 2.277370 5.000000
v 4.906547 1.973179 5.000000
v 5.196260 1.733508 5.000000
v 5.536475 1.573415 5.000000
v 5.905814 1.502960 5.000000
v 6.281072 1.526569 5.000000
v 6.638669 1.642760 5.000000
v 6.956136 1.844230 5.000000
v 7.213526 2.118322 5.000000
v 7.394665 2.447813 5.000000
v 7.488172 2.812000 5.000000
v 7.488172 3.188000 5.000000
v 7.394665 3.552187 5.000000
v 7.213526 3.881678 5.000000
v 6.956136 4.155770 5.000000
v 6.638669 4.357241 5.000000
v 6.281072 4.473431 5.000000
v 5.905814 4.497040 5.000000
v 5.536475 4.426585 5.000000
v 5.196260 4.266492 5.000000
v 4.906547 4.026821 5.000000
v 4.685540 3.722631 5.000000
v 4.547125 3.373035 5.000000
v 4.500000 3.000000 0.000000
v 4.547125 3.373035 0.000000
v 4.685540 3.722631 0.000000
v 4.906547 4.026821 0.000000
v 5.196260 4.266492 0.000000
v 5.536475 4.426585 0.000000
v 5.905814 4.497040 0.000000
v 6.281072 4.473431 0.000000
v 6.638669 4.357241 0.000000
v 6.956136 4.155770 0.000000
v 7.213526 3.881678 0.000000
v 7.394665 3.552187 0.000000
v 7.488172 3.188000 0.000000
v 7.488172 2.812000 0.000000
v 7.394665 2.447813 0.000000
v 7.213526 2.118322 0.000000
v 6.956136 1.844230 0.000000
v 6.638669 1.642760 0.000000
v 6.281072 1.526569 0.000000
v 5.905814 1.502960 0.000000
v 5.536475 1.573415 0.000000
v 5.196260 1.733508 0.000000
v 4.906547 1.973179 0.000000
v 4.685540 2.277370 0.000000
v 4.547125 2.626965 0.000000
v 6.000000 6.000000 5.000000
v 6.000000 6.000000 0.000000
v 6.000000 0.000000 0.000000
v 6.520945 0.045577 0.000000
v 7.026061 0.180922 0.000000
v 7.500000 0.401924 0.000000
v 7.928363 0.701867 0.000000
v 8.298133 1.071637 0.000000
v 8.598076 1.500000 0.000000
v 8.819078 1.973940 0.000000
v 8.954423 2.479055 0.000000
v 9.000000 3.000000 0.000000
v 8.954423 3.520945 0.000000
v 8.819078 4.026060 0.000000
v 8.598076 4.500000 0.000000
v 8.298133 4.928363 0.000000
v 7.928363 5.298133 0.000000
v 7.500000 5.598076 0.000000
v 7.026061 5.819078 0.000000
v 6.520945 5.954423 0.000000
v 6.520945 5.954423 5.000000
v 7.026061 5.819078 5.000000
v 7.500000 5.598076 5.000000
v 7.928363 5.298133 5.000000
v 8.298133 4.928363 5.000000
v 8.598076 4.500000 5.000000
v 8.819078 4.026060 5.000000
v 8.954423 3.520945 5.000000
v 9.000000 3.000000 5.000000
v 8.954423 2.479055 5.000000
v 8.819078 1.973940 5.000000
v 8.598076 1.500000 5.000000
v 8.298133 1.071637 5.000000
v 7.928363 0.701867 5.000000
v 7.500000 0.401924 5.000000
v 7.026061 0.180922 5.000000
v 6.520945 0.045577 5.000000
v 6.000000 0.000000 5.000000
vt 0.650000 -0.306737 0.000000
vt 0.050000 -0.345079 0.000000
vt 0.650000 -0.345079 0.000000
vt 0.051133 -0.376837 0.000000
vt 0.648867 -0.376837 0.000000
vt 0.053405 -0.407714 0.000000
vt 0.646595 -0.407714 0.000000
vt 0.055530 -0.439916 0.000000
vt 0.644470 -0.439916 0.000000
vt 0.643649 -0.471239 0.000000
vt 0.056351 -0.471239 0.000000
vt 0.643649 0.471239 0.000000
vt 0.056351 0.471239 0.000000
vt 0.644470 0.439916 0.000000
vt 0.055530 0.439916 0.000000
vt 0.053405 0.407714 0.000000
vt 0.050000 -0.306737 0.000000
vt 0.650000 -0.268394 0.000000
vt 0.050000 -0.268394 0.000000
vt 0.650000 -0.230052 0.000000
vt 0.050000 -0.230052 0.000000
vt 0.650000 -0.191710 0.000000
vt 0.050000 -0.191710 0.000000
vt 0.650000 -0.153368 0.000000
vt 0.050000 -0.153368 0.000000
vt 0.650000 -0.115026 0.000000
vt 0.050000 -0.115026 0.000000
vt 0.650000 -0.076684 0.000000
vt 0.050000 -0.076684 0.000000
vt 0.650000 -0.038342 0.000000
vt 0.050000 -0.038342 0.000000
vt 0.650000 0.000000 0.000000
vt 0.050000 0.000000 0.000000
vt 0.650000 0.038342 0.000000
vt 0.050000 0.038342 0.000000
vt 0.650000 0.076684 0.000000
vt 0.050000 0.076684 0.000000
vt 0.650000 0.115026 0.000000
vt 0.050000 0.115026 0.000000
vt 0.650000 0.153368 0.000000
vt 0.050000 0.153368 0.000000
vt 0.650000 0.191710 0.000000
vt 0.050000 0.191710 0.000000
vt 0.650000 0.230052 0.000000
vt 0.050000 0.230052 0.000000
vt 0.650000 0.268394 0.000000
vt 0.050000 0.268394 0.000000
vt 0.650000 0.306737 0.000000
vt 0.050000 0.306737 0.000000
vt 0.650000 0.345079 0.000000
vt 0.050000 0.345079 0.000000
vt 0.648867 0.376837 0.000000
vt 0.051133 0.376837 0.000000
vt 0.646595 0.407714 0.000000
vt -0.361803 0.000000 0.000000
vt -0.338288 0.021297 0.000000
vt -0.500000 0.000000 0.000000
vt -0.500000 0.039270 0.000000
vt -0.311634 0.036939 0.000000
vt -0.281093 0.047162 0.000000
vt -0.250000 0.050536 0.000000
vt -0.500000 0.078540 0.000000
vt -0.000000 0.078540 0.000000
vt -0.000000 0.117810 0.000000
vt -0.218907 0.047162 0.000000
vt -0.000000 0.039270 0.000000
vt -0.188366 0.036939 0.000000
vt -0.161712 0.021297 0.000000
vt -0.138197 0.000000 0.000000
vt -0.000000 0.000000 0.000000
vt -0.500000 0.117810 0.000000
vt -0.000000 0.157080 0.000000
vt -0.500000 0.157080 0.000000
vt -0.000000 0.196350 0.000000
vt -0.500000 0.196350 0.000000
vt -0.000000 0.235619 0.000000
vt -0.500000 0.235619 0.000000
vt -0.000000 0.274889 0.000000
vt -0.500000 0.274889 0.000000
vt -0.500000 0.314159 0.000000
vt -0.000000 0.314159 0.000000
vt -0.138197 0.314159 0.000000
vt -0.161712 0.292862 0.000000
vt -0.000000 0.314159 0.000000
vt -0.000000 0.274889 0.000000
vt -0.188366 0.277221 0.000000
vt -0.218907 0.266998 0.000000
vt -0.000000 0.235619 0.000000
vt -0.250000 0.263623 0.000000
vt -0.500000 0.235619 0.000000
vt -0.281093 0.266998 0.000000
vt -0.500000 0.274889 0.000000
vt -0.311634 0.277221 0.000000
vt -0.338288 0.292862 0.000000
vt -0.361803 0.314159 0.000000
vt -0.500000 0.314159 0.000000
vt -0.500000 0.196350 0.000000
vt -0.000000 0.196350 0.000000
vt -0.500000 0.157080 0.000000
vt -0.000000 0.157080 0.000000
vt -0.500000 0.117810 0.000000
vt -0.000000 0.117810 0.000000
vt -0.500000 0.078540 0.000000
vt -0.000000 0.078540 0.000000
vt -0.500000 0.039270 0.000000
vt -0.000000 0.039270 0.000000
vt -0.000000 0.000000 0.000000
vt -0.500000 0.000000 0.000000
vt 0.500000 -0.433540 0.000000
vt 0.000000 -0.433540 0.000000
vt 0.500000 -0.471239 0.000000
vt 0.000000 -0.471239 0.000000
vt 0.500000 0.471239 0.000000
vt 0.000000 0.471239 0.000000
vt 0.500000 0.433540 0.000000
vt 0.000000 0.433540 0.000000
vt 0.500000 0.395841 0.000000
vt 0.000000 0.395841 0.000000
vt 0.500000 0.358142 0.000000
vt 0.000000 0.358142 0.000000
vt 0.500000 0.320442 0.000000
vt -0.000000 0.320442 0.000000
vt 0.500000 0.282743 0.000000
vt 0.000000 0.282743 0.000000
vt 0.500000 0.245044 0.000000
vt 0.000000 0.245044 0.000000
vt 0.500000 0.207345 0.000000
vt 0.000000 0.207345 0.000000
vt 0.500000 0.169646 0.000000
vt 0.000000 0.169646 0.000000
vt 0.500000 0.131947 0.000000
vt -0.000000 0.131947 0.000000
vt 0.500000 0.094248 0.000000
vt -0.000000 0.094248 0.000000
vt 0.500000 0.056549 0.000000
vt 0.000000 0.056549 0.000000
vt 0.500000 0.018850 0.000000
vt 0.000000 0.018850 0.000000
vt 0.500000 -0.018850 0.000000
vt 0.000000 -0.018850 0.000000
vt 0.500000 -0.056549 0.000000
vt 0.000000 -0.056549 0.000000
vt 0.500000 -0.094248 0.000000
vt 0.000000 -0.094248 0.000000
vt 0.500000 -0.131947 0.000000
vt 0.000000 -0.131947 0.000000
vt 0.500000 -0.169646 0.000000
vt 0.000000 -0.169646 0.000000
vt 0.500000 -0.207345 0.000000
vt -0.000000 -0.207345 0.000000
vt 0.500000 -0.245044 0.000000
vt -0.000000 -0.245044 0.000000
vt 0.500000 -0.282743 0.000000
vt 0.000000 -0.282743 0.000000
vt 0.500000 -0.320442 0.000000
vt 0.000000 -0.320442 0.000000
vt 0.500000 -0.358142 0.000000
vt 0.000000 -0.358142 0.000000
vt 0.500000 -0.395841 0.000000
vt 0.000000 -0.395841 0.000000
vt 0.450000 0.138197 0.000000
vt 0.418483 0.116545 0.000000
vt 0.450000 0.000000 0.000000
vt 0.382515 0.103566 0.000000
vt 0.344434 0.100103 0.000000
vt 0.306715 0.106381 0.000000
vt -0.000000 0.000000 0.000000
vt 0.271809 0.121991 0.000000
vt 0.241984 0.145920 0.000000
vt 0.219178 0.176613 0.000000
vt 0.204874 0.212074 0.000000
vt 0.200000 0.250000 0.000000
vt -0.000000 0.500000 0.000000
vt 0.204874 0.287926 0.000000
vt 0.219178 0.323387 0.000000
vt 0.241984 0.354080 0.000000
vt 0.271809 0.378009 0.000000
vt 0.306715 0.393619 0.000000
vt 0.450000 0.500000 0.000000
vt 0.344434 0.399897 0.000000
vt 0.382515 0.396434 0.000000
vt 0.418483 0.383455 0.000000
vt 0.450000 0.361803 0.000000
vt -0.500000 0.000000 0.000000
vt -0.000000 0.000000 0.000000
vt -0.500000 0.052360 0.000000
vt -0.000000 0.052360 0.000000
vt -0.500000 0.104720 0.000000
vt -0.000000 0.104720 0.000000
vt -0.500000 0.157080 0.000000
vt -0.000000 0.157080 0.000000
vt -0.500000 0.209440 0.000000
vt -0.000000 0.209440 0.000000
vt -0.500000 0.261799 0.000000
vt -0.000000 0.261799 0.000000
vt -0.500000 0.314159 0.000000
vt -0.000000 0.314159 0.000000
vt -0.500000 0.366519 0.000000
vt -0.000000 0.366519 0.000000
vt -0.500000 0.418879 0.000000
vt -0.000000 0.418879 0.000000
vt -0.500000 0.471239 0.000000
vt -0.000000 0.471239 0.000000
vt -0.500000 0.523599 0.000000
vt -0.000000 0.523599 0.000000
vt -0.500000 0.575959 0.000000
vt -0.000000 0.575959 0.000000
vt -0.500000 0.628319 0.000000
vt -0.000000 0.628319 0.000000
vt -0.500000 0.680678 0.000000
vt -0.000000 0.680678 0.000000
vt -0.500000 0.733038 0.000000
vt -0.000000 0.733038 0.000000
vt -0.500000 0.785398 0.000000
vt -0.000000 0.785398 0.000000
vt -0.500000 0.837758 0.000000
vt -0.000000 0.837758 0.000000
vt -0.500000 0.890118 0.000000
vt -0.000000 0.890118 0.000000
vt -0.500000 0.942478 0.000000
vt -0.000000 0.942478 0.000000
vt 0.000000 0.361803 0.000000
vt 0.031517 0.383455 0.000000
vt 0.000000 0.500000 0.000000
vt 0.067485 0.396434 0.000000
vt 0.105566 0.399897 0.000000
vt 0.143285 0.393619 0.000000
vt 0.450000 0.500000 0.000000
vt 0.178191 0.378009 0.000000
vt 0.208016 0.354080 0.000000
vt 0.230822 0.323387 0.000000
vt 0.245126 0.287926 0.000000
vt 0.250000 0.250000 0.000000
vt 0.450000 0.000000 0.000000
vt 0.245126 0.212074 0.000000
vt 0.230822 0.176613 0.000000
vt 0.208016 0.145920 0.000000
vt 0.178191 0.121991 0.000000
vt 0.143285 0.106381 0.000000
vt 0.000000 0.000000 0.000000
vt 0.105566 0.100103 0.000000
vt 0.067485 0.103566 0.000000
vt 0.031517 0.116545 0.000000
vt 0.000000 0.138197 0.000000
vt 0.000000 0.000000 0.000000
vt 0.200000 0.000000 0.000000
vt 0.000000 0.500000 0.000000
vt 0.200000 0.500000 0.000000
vt 0.029713 0.037303 0.000000
vt -0.475000 0.100000 0.000000
vt 0.025000 0.000000 0.000000
vt -0.475000 -0.100000 0.000000
vt 0.029713 -0.037303 0.000000
vt 0.043554 -0.072263 0.000000
vt -0.471157 -0.139018 0.000000
vt -0.459776 -0.176537 0.000000
vt 0.043554 0.072263 0.000000
vt -0.471157 0.139018 0.000000
vt -0.459776 0.176537 0.000000
vt -0.441294 0.211114 0.000000
vt -0.275000 0.300000 0.000000
vt -0.416421 0.241421 0.000000
vt -0.386114 0.266294 0.000000
vt -0.351537 0.284776 0.000000
vt -0.314018 0.296157 0.000000
vt 0.065655 0.102682 0.000000
vt 0.094626 0.126649 0.000000
vt 0.175000 0.300000 0.000000
vt 0.128647 0.142658 0.000000
vt 0.165581 0.149704 0.000000
vt 0.227094 0.295442 0.000000
vt 0.203107 0.147343 0.000000
vt 0.277606 0.281908 0.000000
vt 0.325000 0.259808 0.000000
vt 0.238867 0.135724 0.000000
vt 0.367836 0.229813 0.000000
vt 0.404813 0.192836 0.000000
vt 0.270614 0.115577 0.000000
vt 0.434808 0.150000 0.000000
vt 0.296353 0.088168 0.000000
vt 0.456908 0.102606 0.000000
vt 0.314466 0.055219 0.000000
vt 0.470442 0.052094 0.000000
vt 0.323817 0.018800 0.000000
vt 0.475000 -0.000000 0.000000
vt 0.323817 -0.018800 0.000000
vt 0.470442 -0.052094 0.000000
vt 0.314466 -0.055219 0.000000
vt 0.456908 -0.102606 0.000000
vt 0.296353 -0.088168 0.000000
vt 0.434808 -0.150000 0.000000
vt 0.270614 -0.115577 0.000000
vt 0.404813 -0.192836 0.000000
vt 0.238867 -0.135724 0.000000
vt 0.367836 -0.229813 0.000000
vt 0.325000 -0.259808 0.000000
vt 0.203107 -0.147343 0.000000
vt 0.277606 -0.281908 0.000000
vt 0.227094 -0.295442 0.000000
vt 0.165581 -0.149704 0.000000
vt 0.175000 -0.300000 0.000000
vt 0.128647 -0.142658 0.000000
vt 0.094626 -0.126649 0.000000
vt -0.275000 -0.300000 0.000000
vt 0.065655 -0.102682 0.000000
vt -0.441294 -0.211114 0.000000
vt -0.416421 -0.241421 0.000000
vt -0.386114 -0.266294 0.000000
vt -0.351537 -0.284776 0.000000
vt -0.314018 -0.296157 0.000000
vt -0.029713 -0.037303 0.000000
vt 0.475000 -0.100000 0.000000
vt -0.025000 0.000000 0.000000
vt 0.475000 0.100000 0.000000
vt -0.029713 0.037303 0.000000
vt -0.043554 0.072263 0.000000
vt 0.471157 0.139018 0.000000
vt 0.459776 0.176537 0.000000
vt -0.043554 -0.072263 0.000000
vt 0.471157 -0.139018 0.000000
vt 0.459776 -0.176537 0.000000
vt 0.441294 -0.211114 0.000000
vt 0.275000 -0.300000 0.000000
vt 0.416421 -0.241421 0.000000
vt 0.386114 -0.266294 0.000000
vt 0.351537 -0.284776 0.000000
vt 0.314018 -0.296157 0.000000
vt -0.065655 -0.102682 0.000000
vt -0.094626 -0.126649 0.000000
vt -0.175000 -0.300000 0.000000
vt -0.128647 -0.142658 0.000000
vt -0.165581 -0.149704 0.000000
vt -0.227094 -0.295442 0.000000
vt -0.203107 -0.147343 0.000000
vt -0.277606 -0.281908 0.000000
vt -0.325000 -0.259808 0.000000
vt -0.238867 -0.135724 0.000000
vt -0.367836 -0.229813 0.000000
vt -0.404813 -0.192836 0.000000
vt -0.270614 -0.115577 0.000000
vt -0.434808 -0.150000 0.000000
vt -0.296353 -0.088168 0.000000
vt -0.456908 -0.102606 0.000000
vt -0.314466 -0.055219 0.000000
vt -0.470442 -0.052094 0.000000
vt -0.323817 -0.018800 0.000000
vt -0.475000 -0.000000 0.000000
vt -0.323817 0.018800 0.000000
vt -0.470442 0.052094 0.000000
vt -0.314466 0.055219 0.000000
vt -0.456908 0.102606 0.000000
vt -0.296353 0.088168 0.000000
vt -0.434808 0.150000 0.000000
vt -0.270614 0.115577 0.000000
vt -0.404813 0.192836 0.000000
vt -0.238867 0.135724 0.000000
vt -0.367836 0.229813 0.000000
vt -0.325000 0.259808 0.000000
vt -0.203107 0.147343 0.000000
vt -0.277606 0.281908 0.000000
vt -0.227094 0.295442 0.000000
vt -0.165581 0.149704 0.000000
vt -0.175000 0.300000 0.000000
vt -0.128647 0.142658 0.000000
vt -0.094626 0.126649 0.000000
vt 0.275000 0.300000 0.000000
vt -0.065655 0.102682 0.000000
vt 0.441294 0.211114 0.000000
vt 0.416421 0.241421 0.000000
vt 0.386114 0.266294 0.000000
vt 0.351537 0.284776 0.000000
vt 0.314018 0.296157 0.000000
vn 0.045655 0.000000 -0.088970
vn 0.066667 0.000000 -0.074536
vn 0.066667 0.000000 -0.074536
vn 0.080841 0.000000 -0.058861
vn 0.080841 0.000000 -0.058861
vn 0.091166 0.000000 -0.041095
vn 0.091166 0.000000 -0.041095
vn 0.097828 0.000000 -0.020731
vn 0.097828 0.000000 -0.020731
vn 0.100000 0.000000 -0.000000
vn 0.100000 0.000000 -0.000000
vn 0.097828 -0.000000 0.020731
vn 0.097828 -0.000000 0.020731
vn 0.091166 -0.000000 0.041095
vn 0.045655 0.000000 -0.088970
vn 0.021677 0.000000 -0.097622
vn 0.021677 0.000000 -0.097622
vn -0.003711 0.000000 -0.099931
vn -0.003711 0.000000 -0.099931
vn -0.028856 0.000000 -0.095746
vn -0.028856 0.000000 -0.095746
vn -0.052127 0.000000 -0.085339
vn -0.052127 0.000000 -0.085339
vn -0.072011 0.000000 -0.069386
vn -0.072011 0.000000 -0.069386
vn -0.087214 0.000000 -0.048925
vn -0.087214 0.000000 -0.048925
vn -0.096751 0.000000 -0.025284
vn -0.096751 0.000000 -0.025284
vn -0.100000 0.000000 0.000000
vn -0.100000 0.000000 0.000000
vn -0.096751 0.000000 0.025284
vn -0.096751 0.000000 0.025284
vn -0.087214 0.000000 0.048925
vn -0.087214 0.000000 0.048925
vn -0.072011 0.000000 0.069386
vn -0.072011 0.000000 0.069386
vn -0.052127 0.000000 0.085339
vn -0.052127 0.000000 0.085339
vn -0.028856 0.000000 0.095746
vn -0.028856 0.000000 0.095746
vn -0.003711 0.000000 0.099931
vn -0.003711 0.000000 0.099931
vn 0.021677 -0.000000 0.097622
vn 0.021677 -0.000000 0.097622
vn 0.045655 -0.000000 0.088970
vn 0.045655 -0.000000 0.088970
vn 0.066667 -0.000000 0.074536
vn 0.066667 -0.000000 0.074536
vn 0.080841 -0.000000 0.058861
vn 0.080841 -0.000000 0.058861
vn 0.091166 -0.000000 0.041095
vn 0.000000 0.100000 0.000000
vn -0.010629 0.099434 -0.000000
vn 0.000000 0.100000 0.000000
vn -0.019509 0.098079 -0.000000
vn -0.018364 0.098299 -0.000000
vn -0.023363 0.097233 -0.000000
vn -0.025000 0.096825 -0.000000
vn -0.038268 0.092388 -0.000000
vn -0.038268 0.092388 -0.000000
vn -0.055557 0.083147 -0.000000
vn -0.023363 0.097233 -0.000000
vn -0.019509 0.098079 -0.000000
vn -0.018364 0.098299 -0.000000
vn -0.010629 0.099434 -0.000000
vn 0.000000 0.100000 0.000000
vn 0.000000 0.100000 0.000000
vn -0.055557 0.083147 -0.000000
vn -0.070711 0.070711 -0.000000
vn -0.070711 0.070711 -0.000000
vn -0.083147 0.055557 -0.000000
vn -0.083147 0.055557 -0.000000
vn -0.092388 0.038268 -0.000000
vn -0.092388 0.038268 -0.000000
vn -0.098079 0.019509 -0.000000
vn -0.098079 0.019509 -0.000000
vn -0.100000 -0.000000 0.000000
vn -0.100000 -0.000000 0.000000
vn -0.000000 -0.100000 0.000000
vn -0.010629 -0.099434 0.000000
vn -0.000000 -0.100000 0.000000
vn -0.019509 -0.098079 0.000000
vn -0.018364 -0.098299 0.000000
vn -0.023363 -0.097233 0.000000
vn -0.038268 -0.092388 0.000000
vn -0.025000 -0.096825 0.000000
vn -0.038268 -0.092388 0.000000
vn -0.023363 -0.097233 0.000000
vn -0.019509 -0.098079 0.000000
vn -0.018364 -0.098299 0.000000
vn -0.010629 -0.099434 0.000000
vn -0.000000 -0.100000 0.000000
vn -0.000000 -0.100000 0.000000
vn -0.055557 -0.083147 0.000000
vn -0.055557 -0.083147 0.000000
vn -0.070711 -0.070711 0.000000
vn -0.070711 -0.070711 0.000000
vn -0.083147 -0.055557 0.000000
vn -0.083147 -0.055557 0.000000
vn -0.092388 -0.038268 0.000000
vn -0.092388 -0.038268 0.000000
vn -0.098079 -0.019509 0.000000
vn -0.098079 -0.019509 0.000000
vn -0.100000 0.000000 0.000000
vn -0.100000 0.000000 0.000000
vn 0.096858 0.024869 0.000000
vn 0.096858 0.024869 0.000000
vn 0.100000 0.000000 0.000000
vn 0.100000 0.000000 0.000000
vn 0.096858 -0.024869 0.000000
vn 0.096858 -0.024869 0.000000
vn 0.087631 -0.048175 0.000000
vn 0.087631 -0.048175 0.000000
vn 0.072897 -0.068455 0.000000
vn 0.072897 -0.068455 0.000000
vn 0.053583 -0.084433 0.000000
vn 0.053583 -0.084433 0.000000
vn 0.030902 -0.095106 0.000000
vn 0.030902 -0.095106 0.000000
vn 0.006279 -0.099803 0.000000
vn 0.006279 -0.099803 0.000000
vn -0.018738 -0.098229 0.000000
vn -0.018738 -0.098229 0.000000
vn -0.042578 -0.090483 0.000000
vn -0.042578 -0.090483 0.000000
vn -0.063742 -0.077051 0.000000
vn -0.063742 -0.077051 0.000000
vn -0.080902 -0.058779 0.000000
vn -0.080902 -0.058779 0.000000
vn -0.092978 -0.036812 0.000000
vn -0.092978 -0.036812 0.000000
vn -0.099211 -0.012533 0.000000
vn -0.099211 -0.012533 0.000000
vn -0.099211 0.012533 0.000000
vn -0.099211 0.012533 0.000000
vn -0.092978 0.036812 0.000000
vn -0.092978 0.036812 0.000000
vn -0.080902 0.058779 0.000000
vn -0.080902 0.058779 0.000000
vn -0.063742 0.077051 0.000000
vn -0.063742 0.077051 0.000000
vn -0.042578 0.090483 0.000000
vn -0.042578 0.090483 0.000000
vn -0.018738 0.098229 0.000000
vn -0.018738 0.098229 0.000000
vn 0.006279 0.099803 0.000000
vn 0.006279 0.099803 0.000000
vn 0.030902 0.095106 0.000000
vn 0.030902 0.095106 0.000000
vn 0.053583 0.084433 0.000000
vn 0.053583 0.084433 0.000000
vn 0.072897 0.068455 0.000000
vn 0.072897 0.068455 0.000000
vn 0.087631 0.048175 0.000000
vn 0.087631 0.048175 0.000000
vn 0.000000 0.100000 0.000000
vn 0.000000 0.100000 0.000000
vn 0.000000 0.100000 0.000000
vn 0.000000 0.100000 0.000000
vn 0.000000 0.100000 0.000000
vn 0.000000 0.100000 0.000000
vn 0.000000 0.100000 0.000000
vn 0.000000 0.100000 0.000000
vn 0.000000 0.100000 0.000000
vn 0.000000 0.100000 0.000000
vn 0.000000 0.100000 0.000000
vn 0.000000 0.100000 0.000000
vn 0.000000 0.100000 0.000000
vn 0.000000 0.100000 0.000000
vn 0.000000 0.100000 0.000000
vn 0.000000 0.100000 0.000000
vn 0.000000 0.100000 0.000000
vn 0.000000 0.100000 0.000000
vn 0.000000 0.100000 0.000000
vn 0.000000 -0.100000 0.000000
vn 0.000000 -0.100000 0.000000
vn 0.017365 -0.098481 0.000000
vn 0.017365 -0.098481 0.000000
vn 0.034202 -0.093969 0.000000
vn 0.034202 -0.093969 0.000000
vn 0.050000 -0.086603 0.000000
vn 0.050000 -0.086603 0.000000
vn 0.064279 -0.076604 0.000000
vn 0.064279 -0.076604 0.000000
vn 0.076604 -0.064279 0.000000
vn 0.076604 -0.064279 0.000000
vn 0.086603 -0.050000 0.000000
vn 0.086603 -0.050000 0.000000
vn 0.093969 -0.034202 0.000000
vn 0.093969 -0.034202 0.000000
vn 0.098481 -0.017365 0.000000
vn 0.098481 -0.017365 0.000000
vn 0.100000 -0.000000 0.000000
vn 0.100000 -0.000000 0.000000
vn 0.098481 0.017365 0.000000
vn 0.098481 0.017365 0.000000
vn 0.093969 0.034202 0.000000
vn 0.093969 0.034202 0.000000
vn 0.086603 0.050000 0.000000
vn 0.086603 0.050000 0.000000
vn 0.076604 0.064279 0.000000
vn 0.076604 0.064279 0.000000
vn 0.064279 0.076604 0.000000
vn 0.064279 0.076604 0.000000
vn 0.050000 0.086603 0.000000
vn 0.050000 0.086603 0.000000
vn 0.034202 0.093969 0.000000
vn 0.034202 0.093969 0.000000
vn 0.017365 0.098481 0.000000
vn 0.017365 0.098481 0.000000
vn 0.000000 -0.100000 0.000000
vn 0.000000 -0.100000 0.000000
vn 0.000000 -0.100000 0.000000
vn 0.000000 -0.100000 0.000000
vn 0.000000 -0.100000 0.000000
vn 0.000000 -0.100000 0.000000
vn 0.000000 -0.100000 0.000000
vn 0.000000 -0.100000 0.000000
vn 0.000000 -0.100000 0.000000
vn 0.000000 -0.100000 0.000000
vn 0.000000 -0.100000 0.000000
vn 0.000000 -0.100000 0.000000
vn 0.000000 -0.100000 0.000000
vn 0.000000 -0.100000 0.000000
vn 0.000000 -0.100000 0.000000
vn 0.000000 -0.100000 0.000000
vn 0.000000 -0.100000 0.000000
vn 0.000000 0.000000 0.100000
vn 0.000000 0.000000 0.100000
vn 0.000000 0.000000 0.100000
vn 0.000000 0.000000 0.100000
vn 0.000000 0.000000 0.100000
vn 0.000000 0.000000 0.100000
vn 0.000000 0.000000 0.100000
vn 0.000000 0.000000 0.100000
vn 0.000000 0.000000 0.100000
vn 0.000000 0.000000 0.100000
vn 0.000000 0.000000 0.100000
vn 0.000000 0.000000 0.100000
vn 0.000000 0.000000 0.100000
vn 0.000000 0.000000 0.100000
vn 0.000000 0.000000 0.100000
vn 0.000000 0.000000 0.100000
vn 0.000000 0.000000 0.100000
vn 0.000000 0.000000 0.100000
vn 0.000000 0.000000 0.100000
vn 0.000000 0.000000 0.100000
vn 0.000000 0.000000 0.100000
vn 0.000000 0.000000 0.100000
vn 0.000000 0.000000 0.100000
vn 0.000000 0.000000 0.100000
vn 0.000000 0.000000 0.100000
vn 0.000000 0.000000 0.100000
vn 0.000000 0.000000 0.100000
vn 0.000000 0.000000 0.100000
vn 0.000000 0.000000 0.100000
vn 0.000000 0.000000 0.100000
vn 0.000000 0.000000 0.100000
vn 0.000000 0.000000 0.100000
vn 0.000000 0.000000 0.100000
vn 0.000000 0.000000 0.100000
vn 0.000000 0.000000 0.100000
vn 0.000000 0.000000 0.100000
vn 0.000000 0.000000 0.100000
vn 0.000000 0.000000 0.100000
vn 0.000000 0.000000 0.100000
vn 0.000000 0.000000 0.100000
vn 0.000000 0.000000 0.100000
vn 0.000000 0.000000 0.100000
vn 0.000000 0.000000 0.100000
vn 0.000000 0.000000 0.100000
vn 0.000000 0.000000 0.100000
vn 0.000000 0.000000 0.100000
vn 0.000000 0.000000 0.100000
vn 0.000000 0.000000 0.100000
vn 0.000000 0.000000 0.100000
vn 0.000000 0.000000 0.100000
vn 0.000000 0.000000 0.100000
vn 0.000000 0.000000 0.100000
vn 0.000000 0.000000 0.100000
vn 0.000000 0.000000 0.100000
vn 0.000000 0.000000 0.100000
vn 0.000000 0.000000 0.100000
vn 0.000000 0.000000 0.100000
vn 0.000000 0.000000 0.100000
vn 0.000000 0.000000 0.100000
vn 0.000000 0.000000 0.100000
vn 0.000000 0.000000 0.100000
vn 0.000000 0.000000 0.100000
vn -0.000000 0.000000 -0.100000
vn -0.000000 0.000000 -0.100000
vn -0.000000 0.000000 -0.100000
vn -0.000000 0.000000 -0.100000
vn -0.000000 0.000000 -0.100000
vn -0.000000 0.000000 -0.100000
vn -0.000000 0.000000 -0.100000
vn -0.000000 0.000000 -0.100000
vn -0.000000 0.000000 -0.100000
vn -0.000000 0.000000 -0.100000
vn -0.000000 0.000000 -0.100000
vn -0.000000 0.000000 -0.100000
vn -0.000000 0.000000 -0.100000
vn -0.000000 0.000000 -0.100000
vn -0.000000 0.000000 -0.100000
vn -0.000000 0.000000 -0.100000
vn -0.000000 0.000000 -0.100000
vn -0.000000 0.000000 -0.100000
vn -0.000000 0.000000 -0.100000
vn -0.000000 0.000000 -0.100000
vn -0.000000 0.000000 -0.100000
vn -0.000000 0.000000 -0.100000
vn -0.000000 0.000000 -0.100000
vn -0.000000 0.000000 -0.100000
vn -0.000000 0.000000 -0.100000
vn -0.000000 0.000000 -0.100000
vn -0.000000 0.000000 -0.100000
vn -0.000000 0.000000 -0.100000
vn -0.000000 0.000000 -0.100000
vn -0.000000 0.000000 -0.100000
vn -0.000000 0.000000 -0.100000
vn -0.000000 0.000000 -0.100000
vn -0.000000 0.000000 -0.100000
vn -0.000000 0.000000 -0.100000
vn -0.000000 0.000000 -0.100000
vn -0.000000 0.000000 -0.100000
vn -0.000000 0.000000 -0.100000
vn -0.000000 0.000000 -0.100000
vn -0.000000 0.000000 -0.100000
vn -0.000000 0.000000 -0.100000
vn -0.000000 0.000000 -0.100000
vn -0.000000 0.000000 -0.100000
vn -0.000000 0.000000 -0.100000
vn -0.000000 0.000000 -0.100000
vn -0.000000 0.000000 -0.100000
vn -0.000000 0.000000 -0.100000
vn -0.000000 0.000000 -0.100000
vn -0.000000 0.000000 -0.100000
vn -0.000000 0.000000 -0.100000
vn -0.000000 0.000000 -0.100000
vn -0.000000 0.000000 -0.100000
vn -0.000000 0.000000 -0.100000
vn -0.000000 0.000000 -0.100000
vn -0.000000 0.000000 -0.100000
vn -0.000000 0.000000 -0.100000
vn -0.000000 0.000000 -0.100000
vn -0.000000 0.000000 -0.100000
vn -0.000000 0.000000 -0.100000
vn -0.000000 0.000000 -0.100000
vn -0.000000 0.000000 -0.100000
vn -0.000000 0.000000 -0.100000
vn -0.000000 0.000000 -0.100000
usemtl Steel_-_Satin
f 2/1/1 45/2/2 1/3/3
f 1/3/3 45/2/2 46/4/4
f 1/3/3 46/4/4 26/5/5
f 26/5/5 46/4/4 47/6/6
f 26/5/5 47/6/6 25/7/7
f 25/7/7 47/6/6 48/8/8
f 25/7/7 48/8/8 24/9/9
f 24/9/9 48/8/8 23/10/10
f 23/10/10 48/8/8 49/11/11
f 23/12/10 49/13/11 22/14/12
f 22/14/12 49/13/11 50/15/13
f 22/14/12 50/15/13 51/16/14
f 45/2/2 2/1/1 44/17/15
f 44/17/15 2/1/1 3/18/16
f 44/17/15 3/18/16 43/19/17
f 43/19/17 3/18/16 4/20/18
f 43/19/17 4/20/18 42/21/19
f 42/21/19 4/20/18 5/22/20
f 42/21/19 5/22/20 41/23/21
f 41/23/21 5/22/20 6/24/22
f 41/23/21 6/24/22 40/25/23
f 40/25/23 6/24/22 7/26/24
f 40/25/23 7/26/24 39/27/25
f 39/27/25 7/26/24 8/28/26
f 39/27/25 8/28/26 38/29/27
f 38/29/27 8/28/26 9/30/28
f 38/29/27 9/30/28 37/31/29
f 37/31/29 9/30/28 10/32/30
f 37/31/29 10/32/30 36/33/31
f 36/33/31 10/32/30 11/34/32
f 36/33/31 11/34/32 35/35/33
f 35/35/33 11/34/32 12/36/34
f 35/35/33 12/36/34 34/37/35
f 34/37/35 12/36/34 13/38/36
f 34/37/35 13/38/36 33/39/37
f 33/39/37 13/38/36 14/40/38
f 33/39/37 14/40/38 32/41/39
f 32/41/39 14/40/38 15/42/40
f 32/41/39 15/42/40 31/43/41
f 31/43/41 15/42/40 16/44/42
f 31/43/41 16/44/42 30/45/43
f 30/45/43 16/44/42 17/46/44
f 30/45/43 17/46/44 29/47/45
f 29/47/45 17/46/44 18/48/46
f 29/47/45 18/48/46 28/49/47
f 28/49/47 18/48/46 19/50/48
f 28/49/47 19/50/48 27/51/49
f 27/51/49 19/50/48 20/52/50
f 27/51/49 20/52/50 52/53/51
f 52/53/51 20/52/50 21/54/52
f 52/53/51 21/54/52 51/16/14
f 51/16/14 21/54/52 22/14/12
f 1/55/53 26/56/54 70/57/55
f 70/57/55 26/56/54 69/58/56
f 69/58/56 26/56/54 25/59/57
f 69/58/56 25/59/57 24/60/58
f 24/60/58 23/61/59 69/58/56
f 69/58/56 23/61/59 68/62/60
f 68/62/60 23/61/59 55/63/61
f 68/62/60 55/63/61 56/64/62
f 23/61/59 22/65/63 55/63/61
f 55/63/61 22/65/63 54/66/64
f 54/66/64 22/65/63 21/67/65
f 54/66/64 21/67/65 20/68/66
f 19/69/67 53/70/68 20/68/66
f 20/68/66 53/70/68 54/66/64
f 68/62/60 56/64/62 67/71/69
f 67/71/69 56/64/62 57/72/70
f 67/71/69 57/72/70 66/73/71
f 66/73/71 57/72/70 58/74/72
f 66/73/71 58/74/72 65/75/73
f 65/75/73 58/74/72 59/76/74
f 65/75/73 59/76/74 64/77/75
f 64/77/75 59/76/74 60/78/76
f 64/77/75 60/78/76 63/79/77
f 63/79/77 60/78/76 62/80/78
f 62/80/78 60/78/76 61/81/79
f 27/82/80 52/83/81 88/84/82
f 88/84/82 52/83/81 87/85/83
f 87/85/83 52/83/81 51/86/84
f 87/85/83 51/86/84 50/87/85
f 87/85/83 50/87/85 86/88/86
f 86/88/86 50/87/85 49/89/87
f 86/88/86 49/89/87 73/90/88
f 73/90/88 49/89/87 48/91/89
f 73/90/88 48/91/89 72/92/90
f 72/92/90 48/91/89 47/93/91
f 72/92/90 47/93/91 46/94/92
f 45/95/93 71/96/94 46/94/92
f 46/94/92 71/96/94 72/92/90
f 73/90/88 74/97/95 86/88/86
f 86/88/86 74/97/95 85/98/96
f 85/98/96 74/97/95 75/99/97
f 85/98/96 75/99/97 84/100/98
f 84/100/98 75/99/97 76/101/99
f 84/100/98 76/101/99 83/102/100
f 83/102/100 76/101/99 77/103/101
f 83/102/100 77/103/101 82/104/102
f 82/104/102 77/103/101 78/105/103
f 82/104/102 78/105/103 81/106/104
f 81/106/104 78/105/103 80/107/105
f 80/107/105 78/105/103 79/108/106
f 90/109/107 138/110/108 89/111/109
f 89/111/109 138/110/108 114/112/110
f 89/113/109 114/114/110 113/115/111
f 113/115/111 114/114/110 115/116/112
f 113/115/111 115/116/112 112/117/113
f 112/117/113 115/116/112 116/118/114
f 112/117/113 116/118/114 111/119/115
f 111/119/115 116/118/114 117/120/116
f 111/119/115 117/120/116 110/121/117
f 110/121/117 117/120/116 118/122/118
f 110/121/117 118/122/118 109/123/119
f 109/123/119 118/122/118 119/124/120
f 109/123/119 119/124/120 108/125/121
f 108/125/121 119/124/120 120/126/122
f 108/125/121 120/126/122 107/127/123
f 107/127/123 120/126/122 121/128/124
f 107/127/123 121/128/124 106/129/125
f 106/129/125 121/128/124 122/130/126
f 106/129/125 122/130/126 105/131/127
f 105/131/127 122/130/126 123/132/128
f 105/131/127 123/132/128 104/133/129
f 104/133/129 123/132/128 124/134/130
f 104/133/129 124/134/130 103/135/131
f 103/135/131 124/134/130 125/136/132
f 103/135/131 125/136/132 102/137/133
f 102/137/133 125/136/132 126/138/134
f 102/137/133 126/138/134 101/139/135
f 101/139/135 126/138/134 127/140/136
f 101/139/135 127/140/136 100/141/137
f 100/141/137 127/140/136 128/142/138
f 100/141/137 128/142/138 99/143/139
f 99/143/139 128/142/138 129/144/140
f 99/143/139 129/144/140 98/145/141
f 98/145/141 129/144/140 130/146/142
f 98/145/141 130/146/142 97/147/143
f 97/147/143 130/146/142 131/148/144
f 97/147/143 131/148/144 96/149/145
f 96/149/145 131/148/144 132/150/146
f 96/149/145 132/150/146 95/151/147
f 95/151/147 132/150/146 133/152/148
f 95/151/147 133/152/148 94/153/149
f 94/153/149 133/152/148 134/154/150
f 94/153/149 134/154/150 93/155/151
f 93/155/151 134/154/150 135/156/152
f 93/155/151 135/156/152 92/157/153
f 92/157/153 135/156/152 136/158/154
f 92/157/153 136/158/154 91/159/155
f 91/159/155 136/158/154 137/160/156
f 91/159/155 137/160/156 90/109/107
f 90/109/107 137/160/156 138/110/108
f 19/161/67 18/162/157 53/163/68
f 53/163/68 18/162/157 17/164/158
f 53/163/68 17/164/158 16/165/159
f 16/165/159 15/166/160 53/163/68
f 53/163/68 15/166/160 140/167/161
f 140/167/161 15/166/160 14/168/162
f 140/167/161 14/168/162 13/169/163
f 13/169/163 12/170/164 140/167/161
f 140/167/161 12/170/164 11/171/165
f 140/167/161 11/171/165 10/172/166
f 140/167/161 10/172/166 139/173/167
f 139/173/167 10/172/166 9/174/168
f 139/173/167 9/174/168 8/175/169
f 8/175/169 7/176/170 139/173/167
f 139/173/167 7/176/170 6/177/171
f 139/173/167 6/177/171 5/178/172
f 139/173/167 5/178/172 70/179/55
f 70/179/55 5/178/172 4/180/173
f 70/179/55 4/180/173 3/181/174
f 3/181/174 2/182/175 70/179/55
f 70/179/55 2/182/175 1/183/53
f 176/184/176 141/185/177 175/186/178
f 175/186/178 141/185/177 142/187/179
f 175/186/178 142/187/179 174/188/180
f 174/188/180 142/187/179 143/189/181
f 174/188/180 143/189/181 173/190/182
f 173/190/182 143/189/181 144/191/183
f 173/190/182 144/191/183 172/192/184
f 172/192/184 144/191/183 145/193/185
f 172/192/184 145/193/185 171/194/186
f 171/194/186 145/193/185 146/195/187
f 171/194/186 146/195/187 170/196/188
f 170/196/188 146/195/187 147/197/189
f 170/196/188 147/197/189 169/198/190
f 169/198/190 147/197/189 148/199/191
f 169/198/190 148/199/191 168/200/192
f 168/200/192 148/199/191 149/201/193
f 168/200/192 149/201/193 167/202/194
f 167/202/194 149/201/193 150/203/195
f 167/202/194 150/203/195 166/204/196
f 166/204/196 150/203/195 151/205/197
f 166/204/196 151/205/197 165/206/198
f 165/206/198 151/205/197 152/207/199
f 165/206/198 152/207/199 164/208/200
f 164/208/200 152/207/199 153/209/201
f 164/208/200 153/209/201 163/210/202
f 163/210/202 153/209/201 154/211/203
f 163/210/202 154/211/203 162/212/204
f 162/212/204 154/211/203 155/213/205
f 162/212/204 155/213/205 161/214/206
f 161/214/206 155/213/205 156/215/207
f 161/214/206 156/215/207 160/216/208
f 160/216/208 156/215/207 157/217/209
f 160/216/208 157/217/209 159/218/210
f 159/218/210 157/217/209 158/219/211
f 159/218/210 158/219/211 139/220/167
f 139/220/167 158/219/211 140/221/161
f 45/222/93 44/223/212 71/224/94
f 71/224/94 44/223/212 43/225/213
f 71/224/94 43/225/213 42/226/214
f 42/226/214 41/227/215 71/224/94
f 71/224/94 41/227/215 176/228/176
f 176/228/176 41/227/215 40/229/216
f 176/228/176 40/229/216 39/230/217
f 39/230/217 38/231/218 176/228/176
f 176/228/176 38/231/218 37/232/219
f 176/228/176 37/232/219 36/233/220
f 176/228/176 36/233/220 141/234/177
f 141/234/177 36/233/220 35/235/221
f 141/234/177 35/235/221 34/236/222
f 34/236/222 33/237/223 141/234/177
f 141/234/177 33/237/223 32/238/224
f 141/234/177 32/238/224 31/239/225
f 141/234/177 31/239/225 88/240/82
f 88/240/82 31/239/225 30/241/226
f 88/240/82 30/241/226 29/242/227
f 29/242/227 28/243/228 88/240/82
f 88/240/82 28/243/228 27/244/80
f 61/245/79 80/246/105 62/247/78
f 62/247/78 80/246/105 79/248/106
f 113/249/229 62/250/230 89/251/231
f 89/251/231 62/250/230 79/252/232
f 89/251/231 79/252/232 90/253/233
f 90/253/233 79/252/232 91/254/234
f 91/254/234 79/252/232 78/255/235
f 91/254/234 78/255/235 77/256/236
f 113/249/229 112/257/237 62/250/230
f 62/250/230 112/257/237 63/258/238
f 63/258/238 112/257/237 64/259/239
f 64/259/239 112/257/237 65/260/240
f 65/260/240 112/257/237 70/261/241
f 65/260/240 70/261/241 66/262/242
f 66/262/242 70/261/241 67/263/243
f 67/263/243 70/261/241 68/264/244
f 68/264/244 70/261/241 69/265/245
f 112/257/237 111/266/246 70/261/241
f 70/261/241 111/266/246 110/267/247
f 70/261/241 110/267/247 139/268/248
f 139/268/248 110/267/247 109/269/249
f 139/268/248 109/269/249 108/270/250
f 139/268/248 108/270/250 159/271/251
f 159/271/251 108/270/250 107/272/252
f 159/271/251 107/272/252 160/273/253
f 160/273/253 107/272/252 161/274/254
f 161/274/254 107/272/252 106/275/255
f 161/274/254 106/275/255 162/276/256
f 162/276/256 106/275/255 163/277/257
f 163/277/257 106/275/255 105/278/258
f 163/277/257 105/278/258 164/279/259
f 164/279/259 105/278/258 104/280/260
f 164/279/259 104/280/260 165/281/261
f 165/281/261 104/280/260 103/282/262
f 165/281/261 103/282/262 166/283/263
f 166/283/263 103/282/262 102/284/264
f 166/283/263 102/284/264 167/285/265
f 167/285/265 102/284/264 101/286/266
f 167/285/265 101/286/266 168/287/267
f 168/287/267 101/286/266 100/288/268
f 168/287/267 100/288/268 169/289/269
f 169/289/269 100/288/268 99/290/270
f 169/289/269 99/290/270 170/291/271
f 170/291/271 99/290/270 98/292/272
f 170/291/271 98/292/272 171/293/273
f 171/293/273 98/292/272 97/294/274
f 171/293/273 97/294/274 172/295/275
f 172/295/275 97/294/274 173/296/276
f 173/296/276 97/294/274 96/297/277
f 173/296/276 96/297/277 174/298/278
f 174/298/278 96/297/277 175/299/279
f 175/299/279 96/297/277 95/300/280
f 175/299/279 95/300/280 176/301/281
f 176/301/281 95/300/280 94/302/282
f 176/301/281 94/302/282 93/303/283
f 176/301/281 93/303/283 71/304/284
f 71/304/284 93/303/283 92/305/285
f 71/304/284 92/305/285 91/254/234
f 77/256/236 76/306/286 91/254/234
f 91/254/234 76/306/286 71/304/284
f 76/306/286 75/307/287 71/304/284
f 71/304/284 75/307/287 74/308/288
f 71/304/284 74/308/288 73/309/289
f 73/309/289 72/310/290 71/304/284
f 138/311/291 80/312/292 114/313/293
f 114/313/293 80/312/292 61/314/294
f 114/313/293 61/314/294 115/315/295
f 115/315/295 61/314/294 116/316/296
f 116/316/296 61/314/294 60/317/297
f 116/316/296 60/317/297 59/318/298
f 138/311/291 137/319/299 80/312/292
f 80/312/292 137/319/299 81/320/300
f 81/320/300 137/319/299 82/321/301
f 82/321/301 137/319/299 83/322/302
f 83/322/302 137/319/299 88/323/303
f 83/322/302 88/323/303 84/324/304
f 84/324/304 88/323/303 85/325/305
f 85/325/305 88/323/303 86/326/306
f 86/326/306 88/323/303 87/327/307
f 137/319/299 136/328/308 88/323/303
f 88/323/303 136/328/308 135/329/309
f 88/323/303 135/329/309 141/330/310
f 141/330/310 135/329/309 134/331/311
f 141/330/310 134/331/311 133/332/312
f 141/330/310 133/332/312 142/333/313
f 142/333/313 133/332/312 132/334/314
f 142/333/313 132/334/314 143/335/315
f 143/335/315 132/334/314 144/336/316
f 144/336/316 132/334/314 131/337/317
f 144/336/316 131/337/317 145/338/318
f 145/338/318 131/337/317 146/339/319
f 146/339/319 131/337/317 130/340/320
f 146/339/319 130/340/320 147/341/321
f 147/341/321 130/340/320 129/342/322
f 147/341/321 129/342/322 148/343/323
f 148/343/323 129/342/322 128/344/324
f 148/343/323 128/344/324 149/345/325
f 149/345/325 128/344/324 127/346/326
f 149/345/325 127/346/326 150/347/327
f 150/347/327 127/346/326 126/348/328
f 150/347/327 126/348/328 151/349/329
f 151/349/329 126/348/328 125/350/330
f 151/349/329 125/350/330 152/351/331
f 152/351/331 125/350/330 124/352/332
f 152/351/331 124/352/332 153/353/333
f 153/353/333 124/352/332 123/354/334
f 153/353/333 123/354/334 154/355/335
f 154/355/335 123/354/334 122/356/336
f 154/355/335 122/356/336 155/357/337
f 155/357/337 122/356/336 156/358/338
f 156/358/338 122/356/336 121/359/339
f 156/358/338 121/359/339 157/360/340
f 157/360/340 121/359/339 158/361/341
f 158/361/341 121/359/339 120/362/342
f 158/361/341 120/362/342 140/363/343
f 140/363/343 120/362/342 119/364/344
f 140/363/343 119/364/344 118/365/345
f 140/363/343 118/365/345 53/366/346
f 53/366/346 118/365/345 117/367/347
f 53/366/346 117/367/347 116/316/296
f 59/318/298 58/368/348 116/316/296
f 116/316/296 58/368/348 53/366/346
f 58/368/348 57/369/349 53/366/346
f 53/366/346 57/369/349 56/370/350
f 53/366/346 56/370/350 55/371/351
f 55/371/351 54/372/352 53/366/346
# 176 vertices
# 372 texture params
# 352 normals
# 356 facets

# 1 groups
